<svg width="160" height="49" viewBox="0 0 160 49" fill="none" xmlns="http://www.w3.org/2000/svg">
<path d="M4.52481 38.2438H0V10.1118H2.96391C3.23304 11.1021 3.52368 12.1678 3.83945 13.3448C6.50554 10.8832 9.3941 9.16446 13.0649 9.25058C16.768 9.3367 19.5059 11.095 21.5225 14.3603C23.5678 12.0458 25.7315 10.3127 28.6273 9.51611C34.1173 8.00545 40.4255 11.8449 40.7161 17.5287C41.0678 24.3608 40.7987 31.2216 40.7987 38.208H36.586C36.5538 37.5369 36.4999 36.9018 36.4999 36.2667C36.4892 31.0637 36.6112 25.8535 36.4174 20.6577C36.3564 19.0215 35.811 17.1807 34.8888 15.8458C32.3914 12.2181 27.2386 13.0577 24.8596 16.1042C23.4996 17.8445 22.7963 19.8216 22.8178 22.0751C22.8573 26.7398 22.8286 31.4046 22.8286 36.0729C22.8286 36.7224 22.8286 37.3755 22.8286 38.1828H18.2894C18.2571 37.5908 18.1961 36.9592 18.1961 36.3313C18.1854 31.1857 18.3074 26.0401 18.1136 20.9017C18.049 19.2009 17.561 17.2704 16.6137 15.8961C13.9512 12.0315 8.33556 13.0147 6.07854 16.7788C5.17429 18.2859 4.66476 20.2271 4.5894 21.9961C4.38846 26.7111 4.52123 31.4441 4.52123 36.1698C4.52123 36.8121 4.52123 37.4544 4.52123 38.251L4.52481 38.2438Z" fill="#D8D8D8"/>
<path d="M149.078 23.3274C152.48 28.2325 155.853 33.0982 159.402 38.2115H154.303C151.737 34.512 149.1 30.7085 146.283 26.6465C143.509 30.6259 140.868 34.4116 138.199 38.2402H133.19C136.706 33.2274 140.04 28.4765 143.502 23.5391C140.452 19.147 137.374 14.7119 134.155 10.0795H139.279C141.507 13.3053 143.8 16.6317 146.294 20.2486C148.802 16.7178 151.188 13.3591 153.564 10.0185H158.562C155.336 14.5433 152.258 18.86 149.071 23.3274H149.078Z" fill="#D8D8D8"/>
<path d="M99.205 34.0384V37.9962C92.1361 39.471 85.9033 36.4856 85.6916 28.5806C85.5624 23.8046 85.6664 19.025 85.6664 13.9691H80.8474C80.7541 13.7861 80.6608 13.5996 80.5675 13.4166C83.6139 10.1943 86.6604 6.97201 89.7068 3.74615C89.8719 3.80357 90.0334 3.86457 90.1984 3.92198V9.8821H99.1297V13.8077H90.446C90.3958 14.6402 90.3276 15.2681 90.3276 15.8925C90.3169 19.8396 90.3168 23.7903 90.324 27.7374C90.3312 32.2012 92.1684 34.024 96.6609 34.0348C97.4324 34.0348 98.2003 34.0348 99.2014 34.0348L99.205 34.0384Z" fill="#D8D8D8"/>
<path d="M104.846 10.0292H107.845C108.125 11.2349 108.402 12.419 108.728 13.8256C111.681 10.2051 115.553 9.47304 119.956 9.66681V14.1055C119.03 14.1055 117.774 14.1055 116.698 14.1055C112.188 14.03 109.417 17.9387 109.363 21.5727C109.295 26.4097 109.345 31.2503 109.342 36.0873C109.342 36.7368 109.342 37.3862 109.342 38.1864H104.846V10.0292Z" fill="#D8D8D8"/>
<path d="M128.955 10.1333V38.1972H124.567V10.1333H128.955Z" fill="#D8D8D8"/>
<path d="M124.262 0H128.948V5.13123H124.262V0Z" fill="#D8D8D8"/>
<path fill-rule="evenodd" clip-rule="evenodd" d="M72.1862 11.967C72.0869 12.5318 71.9869 13.1005 71.8804 13.7036V13.7072C63.7745 6.76749 55.3743 8.97428 51.115 12.7779C45.6142 17.6902 44.4983 25.4624 48.2408 32.0325C49.8089 34.7847 52.1341 36.7691 55.0478 37.8563C61.2519 40.1707 66.8819 38.9579 71.7979 34.3506L71.8299 34.5454C72.0626 35.962 72.2509 37.1084 72.4294 38.1792H76.1612V10.0974H72.5155C72.4015 10.7425 72.2942 11.3525 72.1862 11.967ZM61.0401 34.451C66.5373 34.6663 71.7583 30.0303 71.3205 24.1312C71.6542 18.1997 67.2227 13.8041 61.6573 13.6606C55.1912 13.4955 50.8781 17.7081 50.8422 24.1204C50.8064 30.1379 55.0692 34.2178 61.0401 34.451Z" fill="#D8D8D8"/>
</svg>
