<svg width="197" height="49" viewBox="0 0 197 49" fill="none" xmlns="http://www.w3.org/2000/svg">
<path fill-rule="evenodd" clip-rule="evenodd" d="M7.94693 9.47692C5.82199 9.47692 3.95293 10.114 2.50717 11.346C1.0193 12.6212 0.254824 14.1512 0.254824 15.936C0.254824 18.3568 2.12388 20.567 5.94835 22.5214L7.94588 23.5849L11.4302 25.7941C11.983 26.4311 12.28 27.1535 12.28 28.1307C12.28 29.3216 11.7703 30.3851 10.8774 31.2749C9.90023 32.0836 8.71035 32.509 7.34988 32.509C3.95083 32.509 1.6553 30.7242 0.550715 27.1535H0.128465L0 32.4658C2.67776 33.9116 5.18493 34.5908 7.4794 34.5908C9.90233 34.5908 11.942 33.8252 13.5994 32.3816C15.1715 30.9358 16.0213 29.0668 16.0213 26.8987C16.0213 25.2844 15.5969 24.0524 14.7471 23.0321C13.9816 21.9707 12.4948 20.9503 10.3277 19.8879L8.11751 18.8675C5.39764 17.5513 3.99505 16.1487 3.99505 14.7461C3.99505 13.7257 4.37834 12.8339 5.14281 12.1957C5.86516 11.5166 6.84234 11.1343 8.03222 11.1343C10.3267 11.1343 12.3242 12.5369 13.9816 15.3832H14.2786L14.3217 11.0069C11.8567 9.98658 9.68963 9.47692 7.94693 9.47692ZM32.2531 19.1223V15.3832C30.6389 14.7461 29.0657 14.406 27.4083 14.406C24.561 14.406 22.2666 15.3832 20.5249 17.2522C18.6969 19.1213 17.805 21.501 17.805 24.3904C17.805 27.3662 18.6548 29.787 20.3122 31.6993C21.9696 33.5683 24.1367 34.5476 26.8134 34.5476C28.7677 34.5476 30.5947 33.9105 32.2953 32.7196L32.8049 30.085L32.6775 30.0008C31.1907 31.615 29.5764 32.4648 27.8758 32.4648C26.091 32.4648 24.6042 31.6993 23.5839 30.085C22.5214 28.555 21.9696 26.4733 21.9696 23.7523C21.9696 21.4157 22.4793 19.5467 23.4996 18.1441C24.5621 16.7004 25.9215 16.0192 27.6642 16.0192C29.5343 16.0192 30.978 17.0395 31.9562 19.1202H32.2531V19.1223ZM33.7831 0.129518C34.3781 0.766577 34.7614 1.99647 34.7614 3.74128V30.3009C34.7614 32.1678 34.3781 33.4019 33.6136 34.0401V34.1243H39.9452V34.0401C39.1808 33.3598 38.8407 32.0847 38.8407 30.3851V22.6499C38.8407 18.6559 40.4128 16.6162 43.557 16.6162C45.087 16.6162 46.1063 17.0416 46.7444 17.8914C47.2972 18.7843 47.5942 20.3575 47.5942 22.6509V34.1243H52.6938V34.0401C51.9283 33.403 51.5461 32.1689 51.5461 30.3851V22.3108C51.4608 17.0416 49.2937 14.407 45.087 14.407C42.8768 14.407 40.795 15.3 38.8396 17.0416V0H33.7831V0.129518ZM69.2226 14.9167H67.1398L62.5509 29.1942L59.0233 17.3396L58.8959 16.3603C58.8959 15.8096 59.1508 15.2989 59.6615 14.9577V14.8324H53.1171V14.9577C54.0943 15.5948 55.1136 17.6787 56.1771 21.3336L60.0016 34.1233H62.9763L67.1409 21.2051L70.9653 34.1233H73.8547L78.9112 18.5706C79.5493 16.7015 80.5265 15.5106 81.8438 15.043V14.9156H76.0218V15.043C76.9147 15.2547 77.3391 15.8496 77.3391 16.7847L76.702 19.335L73.4304 29.1921L69.2226 14.9167ZM115.967 16.7857L119.365 16.7015L108.786 34.1233H124.295L124.764 29.6196H124.55C123.871 30.7242 123.191 31.4044 122.511 31.7445L119.153 32.2974H114.437L124.932 14.9577H111.548L110.825 18.9107H111.037C111.887 17.4649 113.544 16.7857 115.967 16.7857ZM126.419 0.129518C127.143 0.766577 127.483 1.99647 127.483 3.74128V30.3009C127.483 32.1678 127.059 33.4019 126.292 34.0401V34.1243H132.624V34.0401C131.859 33.3598 131.52 32.0847 131.52 30.3851V23.586L139.423 34.1243H144.904V34.0401L135.131 21.6306L142.865 14.9588V14.8335H136.577V14.9588C137.001 15.0862 137.214 15.4684 137.214 16.0223C137.214 17.1269 135.725 18.9117 132.879 21.3347L131.52 22.5235V0.00105053H126.419V0.129518ZM195.302 3.95293C192.879 3.95293 191.223 4.63317 190.203 6.07787C189.139 7.48045 188.673 9.81704 188.673 13.2161V14.9577H187.355L186.719 16.7857L188.672 16.7015V30.1724C188.672 32.0415 188.333 33.2735 187.567 34.039V34.1233H193.814V34.039C193.048 33.402 192.666 32.1678 192.666 30.3841L192.625 16.7015H195.726L196.065 14.9577H192.665V8.88198C192.665 6.71387 193.387 5.61034 194.706 5.61034C195.386 5.61034 195.938 5.94941 196.363 6.63069H196.447L197 4.16458L195.302 3.95293ZM99.395 14.9577C100.031 15.5948 100.372 16.8268 100.372 18.6559V30.3009C100.372 32.1678 100.031 33.4019 99.2676 34.0401V34.1243H105.514V34.0401C104.748 33.3598 104.366 32.0847 104.366 30.3851V21.0788C104.366 18.7833 105.343 17.5923 107.383 17.5923C108.276 17.5923 108.954 17.9335 109.424 18.6559H109.592L109.847 14.6187C107.722 14.7461 105.896 15.639 104.366 17.3807V14.8324H99.395V14.9577ZM88.1322 16.0213C90.1719 16.0213 91.1491 16.9574 91.1491 18.9949C91.1491 20.5681 89.6191 21.9707 86.6444 23.2869C84.1804 24.3504 82.4808 25.2423 81.5458 26.1331C80.6539 27.0261 80.2285 28.1296 80.2285 29.6196C80.2285 30.979 80.7381 32.1678 81.6311 33.0608C82.6083 33.9558 83.7992 34.3791 85.2428 34.3791C87.2404 34.3791 89.28 33.5704 91.3618 31.9562V34.1243H96.334V34.0401C95.5685 33.403 95.2294 32.1689 95.2294 30.3009L95.1441 21.2062C95.1441 18.699 94.7619 16.9574 93.8268 15.937C92.9349 14.9167 91.4049 14.407 89.28 14.407C87.5384 14.407 85.583 14.9167 83.4159 15.8507L82.7357 19.3371H83.16C84.6058 17.1259 86.2632 16.0213 88.1322 16.0213ZM91.3618 22.395V27.919C91.3618 30.7674 90.0445 32.1678 87.4531 32.1678C86.5612 32.1678 85.881 31.8288 85.2428 31.1907C84.6058 30.5536 84.351 29.7881 84.351 28.8973C84.351 27.918 84.6058 27.1124 85.1586 26.4743C85.7957 25.8372 86.816 25.0717 88.4303 24.263L91.3618 22.395Z" fill="#B7B7B7"/>
<path fill-rule="evenodd" clip-rule="evenodd" d="M161.604 17.169C159.65 15.1725 157.312 14.1953 154.465 14.1953C151.492 14.1953 148.985 15.1725 146.987 17.169C144.946 19.1223 144.011 21.5452 144.011 24.4778C144.011 27.324 144.947 29.788 146.987 31.8277C148.984 33.8241 151.407 34.8034 154.337 34.8034C157.226 34.8034 159.649 33.8241 161.603 31.8277C163.558 29.787 164.535 27.3672 164.535 24.4778C164.536 21.6294 163.559 19.2086 161.604 17.169ZM154.041 15.8506C155.867 15.8506 157.311 16.7025 158.417 18.4441C159.479 20.1858 160.032 22.5224 160.032 25.3686C160.032 27.7915 159.522 29.6606 158.545 31.0632C157.568 32.5089 156.249 33.1881 154.592 33.1881C152.807 33.1881 151.363 32.2973 150.172 30.5535C148.984 28.8551 148.431 26.5595 148.431 23.7544C148.431 21.4178 148.984 19.4645 150.045 18.0187C151.065 16.574 152.384 15.8506 154.041 15.8506ZM182.978 16.9563C181.45 15.2557 179.494 14.4059 177.158 14.4059C174.651 14.4059 172.655 15.3831 171.168 17.2521V14.8313H166.11V14.9566C166.833 15.5937 167.172 16.8257 167.172 18.6547V44.2351C167.172 46.0199 166.833 47.295 166.067 47.9763V48.1016H172.314V47.9763C171.548 47.3393 171.168 46.1073 171.168 44.3214V33.2734C172.471 34.1156 173.992 34.5587 175.544 34.5486C178.263 34.5486 180.472 33.4851 182.343 31.318C184.212 29.1931 185.19 26.6017 185.19 23.5848C185.189 20.8639 184.424 18.699 182.978 16.9563ZM175.5 16.4877C177.157 16.4877 178.474 17.2532 179.494 18.699C180.471 20.229 180.981 22.2675 180.981 24.6894C180.981 27.1534 180.471 29.1931 179.451 30.7231C178.389 32.1667 177.071 32.9322 175.329 32.9322C172.654 32.9322 171.251 31.4886 171.167 28.4718V22.1823C171.167 18.3578 172.654 16.4877 175.5 16.4877Z" fill="#B7B7B7"/>
</svg>
