<svg width="100" height="91" viewBox="0 0 100 91" fill="none" xmlns="http://www.w3.org/2000/svg">
<g clip-path="url(#clip0_182_123)">
<ellipse cx="59.5" cy="50.4999" rx="40" ry="40.5" fill="#FEF7F7"/>
<path opacity="0.3" d="M101.756 -2.88543C100.006 -2.43219 98.2292 -2.08931 96.4361 -1.85881C96.5536 -0.875766 96.6649 0.148627 96.7859 1.21554C99.3645 1.23981 107.714 1.37027 111.305 2.55223C115.644 3.93033 129.096 8.87793 129.096 8.87793C129.096 8.87793 119.712 8.36647 114.642 7.7004C110.474 7.15164 100.429 4.35349 96.9705 3.34198L97.3497 6.84622C100.67 7.37168 109.609 8.85728 113.579 10.3404C118.521 12.1838 125.869 17.4029 125.869 17.4029C125.869 17.4029 117.806 12.6719 113.713 12.6271C109.621 12.5824 106.627 13.0005 102.729 11.4488C100.297 10.4801 98.5551 9.66146 97.5963 9.1798C97.7573 10.6645 97.8985 12.1574 98.063 13.726C100.709 13.7069 108.422 13.7427 111.982 14.8677C116.365 16.2587 129.849 20.2856 129.849 20.2856C125.503 19.6849 121.122 19.3768 116.735 19.3634C112.06 19.4885 101.504 16.5983 98.3113 15.6866C98.3785 16.4344 98.4524 17.1795 98.536 17.9671C101.051 18.1958 109.252 19.039 113.016 20.4909C117.497 22.2138 132.335 29.0412 132.335 29.0412C127.781 27.9719 123.165 27.1838 118.513 26.6812C113.584 26.2827 102.065 21.5244 98.7272 20.0908C98.8447 21.3376 98.9808 22.5921 99.0826 23.8763C102.522 24.5586 105.921 25.4327 109.263 26.4947C112.966 27.8167 118.029 29.7108 122.079 30.3859C126.128 31.0611 132.92 31.7242 132.92 31.7242C132.92 31.7242 116.318 32.2455 110.684 30.493C106.233 29.1068 101.155 26.1953 99.1727 25.0568C99.3308 26.6978 99.4803 28.3682 99.6212 30.068C102.019 30.4071 109.46 31.6097 114.225 34.1381C119.965 37.204 132.266 46.7823 132.266 46.7823C128.122 44.3251 123.841 42.1077 119.443 40.1408C114.573 38.1128 102.567 32.7176 99.748 31.4505C99.8537 32.7254 99.963 34.009 100.076 35.3016C102.935 35.9702 112.478 38.2461 116.935 40.9096C122.197 44.0403 132.726 50.8038 132.726 50.8038C132.726 50.8038 121.289 46.6241 114.788 44.12C109.801 42.046 104.947 39.667 100.254 36.9965C100.357 38.2648 100.439 39.5025 100.503 40.6939C102.177 41.5558 110.205 45.6572 114.504 48.8044C119.313 52.3233 128.326 60.8351 128.326 60.8351C128.326 60.8351 118.629 55.3576 112.706 51.3746C107.716 48.0001 102.208 43.536 100.576 42.1915C100.667 43.9948 100.719 45.7053 100.733 47.3229C104.638 48.9769 108.309 51.1372 111.65 53.7481C116.989 58.0648 122.849 63.8731 122.849 63.8731C118.52 61.6774 114.356 59.1721 110.388 56.3768C106.701 53.6216 102.63 50.3109 100.727 48.76C100.737 50.043 100.726 51.2728 100.693 52.4496C104.098 54.5584 107.321 56.9462 110.329 59.5885C114.284 63.2574 119.506 69.2507 119.506 69.2507C116.686 66.8959 113.692 64.7583 110.549 62.856C106.646 60.5385 102.191 55.7493 100.592 53.957C100.527 55.333 100.444 56.6262 100.342 57.8366C101.804 58.7859 106.536 61.9487 108.05 63.9697C109.858 66.3818 115.534 73.7237 115.534 73.7237L106.469 65.8224C104.212 63.6786 102.126 61.3606 100.232 58.8899C100.134 59.9697 100.018 60.9711 99.8847 61.9101C101.739 63.1165 107.464 66.9177 108.297 68.5288C109.295 70.4444 114.719 77.1922 114.719 77.1922C114.719 77.1922 109.926 72.24 106.559 69.2444C104.123 67.0984 101.186 64.43 99.7164 63.1039C99.5845 63.9336 99.4563 64.7154 99.3127 65.4414C100.255 66.4107 103.794 70.0491 105.531 71.7069C107.546 73.8562 109.438 76.1171 111.198 78.4788C111.198 78.4788 107.946 75.5366 105.736 73.3909C103.949 71.6525 100.431 67.8193 99.1598 66.4272C99.0362 67.0132 98.9029 67.5566 98.7786 68.0653C99.6885 68.8618 103.392 72.1842 104.838 74.1712C106.482 76.4492 109.242 81.6646 109.242 81.6646C109.242 81.6646 105.956 78.1314 103.401 74.9025C101.421 72.3908 99.3896 69.9077 98.607 68.9115C98.4745 69.4003 98.3494 69.8317 98.2201 70.234C99.619 71.7039 100.772 73.3899 101.633 75.2269C102.973 78.2352 104.781 82.3841 104.781 82.3841C102.805 80.7712 101.186 78.7648 100.028 76.4925C99.1203 74.6791 98.4602 72.7521 98.0653 70.763C97.7938 71.6417 97.4501 72.4965 97.0375 73.3186C97.951 74.5904 98.5701 76.0494 98.8501 77.59C99.211 79.5767 99.4588 81.5823 99.5921 83.5972C99.5921 83.5972 97.1586 81.6442 97.1402 79.62C97.1417 78.5872 97.0898 77.555 96.9848 76.5276C96.7927 78.0895 96.3527 79.6109 95.6815 81.0347C94.5804 83.3181 91.8145 85.2709 91.8145 85.2709C91.8145 85.2709 93.2583 79.597 94.3041 77.9335C95.1543 76.5677 96.0202 74.9006 96.5521 73.9682C95.8627 74.7312 95.1178 75.4422 94.3236 76.0953C93.1142 77.0306 91.7754 77.7855 90.3491 78.3362C91.0695 77.0077 92.09 75.8654 93.3295 75C95.1756 73.8291 95.3204 73.9169 96.7336 73.0327C96.8389 72.2139 97.4497 70.2099 97.6216 68.7044C96.5037 70.4156 95.1325 71.9475 93.555 73.2477C90.8693 75.3768 86.2712 78.5723 86.2712 78.5723C86.2712 78.5723 90.7183 73.2753 93.1527 71.7614C94.7313 70.7403 96.2323 69.604 97.6435 68.3619C97.7281 67.6059 97.8147 66.7792 97.913 65.9245C96.6714 67.4846 95.2725 68.9128 93.7383 70.1865C91.4966 71.9235 91.2149 71.7293 88.3982 73.8038C86.2913 75.4528 84.3099 77.256 82.4703 79.1985C82.4703 79.1985 84.3284 74.0598 86.4068 72.9251C88.4852 71.7905 89.9835 69.5296 92.8013 67.9666C94.6009 66.9235 96.3289 65.7615 97.9736 64.4882C98.059 63.6775 98.1222 62.7752 98.1904 61.8475C96.086 63.7709 93.8299 65.5216 91.4442 67.0827C87.9459 69.2361 79.8864 73.1662 79.8864 73.1662C79.8864 73.1662 86.6902 67.411 89.2839 65.8316C91.483 64.4999 96.7013 61.2274 98.2995 60.1896C98.3754 59.0416 98.4463 57.844 98.5124 56.5967C96.1207 59.1986 93.5518 61.6319 90.824 63.8793C87.3306 66.5348 79.5232 71.5864 79.5232 71.5864C79.5232 71.5864 85.9542 63.945 89.784 61.3527C92.8291 59.3238 96.9966 56.2513 98.575 55.0897C98.6364 53.7306 98.6748 52.3344 98.7034 50.8957C97.268 52.6498 92.5265 58.3626 90.0724 60.3189C87.1475 62.6396 78.5991 68.097 78.5991 68.097C78.5991 68.097 85.9569 59.9734 88.8178 57.7799C91.3004 55.8739 97.1934 50.734 98.7207 49.3919C98.7372 48.0745 98.7268 46.7294 98.7043 45.3738C96.6624 47.1061 91.0407 51.9249 89.1196 54.29C86.7494 57.2043 86.1237 56.4383 83.2228 59.0437C80.3219 61.6492 76.3835 65.9381 76.3835 65.9381C76.3835 65.9381 79.1072 59.9235 81.4352 58.151C83.7632 56.3785 84.7811 53.0824 87.5019 50.869C90.9786 48.1218 94.7158 45.7212 98.66 43.7014C98.6164 42.37 98.5607 41.0281 98.4796 39.6811C96.7492 41.3782 90.3987 47.575 87.8549 49.4829C84.8971 51.724 74.758 58.0301 74.758 58.0301C74.758 58.0301 79.8952 53.6744 82.132 51.4353C84.3688 49.1962 84.8769 46.2263 88.6051 43.8774C91.4819 42.0806 96.3585 39.2978 98.3689 38.1679C98.3174 37.4394 98.2584 36.7115 98.1918 35.9841L97.9768 33.7461C95.5973 35.9498 93.0597 37.9767 90.3844 39.8104C85.9863 42.7375 83.0802 42.6153 79.6578 45.4432C76.9835 47.8144 74.5001 50.3924 72.2307 53.1533C72.2307 53.1533 74.9267 46.336 78.2879 44.3398C81.649 42.3436 85.3437 40.9314 87.0891 38.9877C88.8344 37.044 89.877 35.5989 92.4916 34.5227C94.3099 33.7742 96.6239 33.0234 97.8593 32.6312C97.6765 30.8297 97.4766 28.9112 97.2639 26.9049C95.7684 28.5131 90.1951 34.4676 86.6808 37.0154C82.6151 40.015 71.4012 45.1427 71.4012 45.1427C71.4012 45.1427 78.5986 39.8536 81.7627 36.9071C84.9267 33.9607 87.1872 31.0061 90.3164 29.4079C92.613 28.2377 95.7083 26.5759 97.1772 25.8084C97.0434 24.5218 96.8882 23.2209 96.7486 21.8824C94.684 23.7481 89.0197 28.8405 86.003 31.3153C82.2819 34.3979 71.0593 42.0496 71.0593 42.0496C71.0593 42.0496 78.5397 35.7134 80.1431 33.4249C81.7465 31.1363 84.914 27.1803 88.5493 24.8697C91.3105 23.1127 94.9648 21.1122 96.5634 20.2448C96.3911 18.6949 96.2078 17.1186 96.0246 15.5422C94.4772 17.1562 90.0106 21.6702 86.0937 24.3527C81.2517 27.6719 68.3724 32.5622 68.3724 32.5622C68.3724 32.5622 74.4219 29.6689 77.7532 26.3744C81.0844 23.08 86.1757 18.1227 89.5953 16.5135C91.8886 15.4299 94.4139 14.344 95.8246 13.7555L95.4694 10.7998C92.5318 13.027 89.4838 15.1047 86.3369 17.025C81.3501 19.9927 65.6033 28.3046 65.6033 28.3046C65.6033 28.3046 75.4294 19.956 79.6517 16.6205C83.8739 13.2849 86.4054 12.2895 95.2671 9.0451C95.1207 7.84126 94.9744 6.63741 94.8391 5.4601C94.0874 6.40541 92.1529 7.94617 87.2691 10.127C78.3135 14.1236 66.6856 16.5678 66.6856 16.5678C70.0613 15.0829 73.3554 13.4189 76.5538 11.583C79.3946 9.79329 91.6381 4.75363 94.6072 3.53927C94.4799 2.5137 94.3608 1.50802 94.2406 0.518345C92.2056 2.67066 89.6874 4.308 86.8943 5.29488C81.249 7.41694 71.0463 4.17955 71.0463 4.17955C71.0463 4.17955 80.8101 5.86048 83.9397 4.30086C87.0693 2.74124 86.7641 1.50973 89.1472 0.606349C90.7592 0.0465439 92.4027 -0.417643 94.0694 -0.783794C93.9262 -1.94238 93.8494 -2.4304 93.723 -3.51058C92.2313 -2.34594 88.0608 -0.807644 84.3963 -0.811492C79.735 -0.8238 77.0984 -2.68543 77.0984 -2.68543C79.4935 -2.75814 81.8679 -3.1538 84.1574 -3.86168C86.9588 -4.76667 91.7774 -4.74931 93.5888 -4.70388C92.6175 -12.6252 91.8952 -18.2449 91.8952 -18.2449L94.693 -16.6513C94.693 -16.6513 95.3535 -11.6343 96.2884 -3.34899C99.3905 -5.04835 102.724 -6.28707 106.183 -7.02613C111.319 -7.91502 120.603 -7.15349 120.603 -7.15349C120.603 -7.15349 113.184 -6.8526 110.217 -6.14304C107.249 -5.43347 105.162 -3.77527 101.756 -2.88543Z" fill="white"/>
<path d="M68.473 30.7289L68.829 31.08C69.0229 30.8834 69.0207 30.5668 68.8241 30.3729L68.473 30.7289ZM57.6533 20.0593L58.0044 19.7033C57.8078 19.5094 57.4912 19.5116 57.2973 19.7082L57.6533 20.0593ZM55.367 22.3778L55.011 22.0267C54.8171 22.2233 54.8193 22.5399 55.0159 22.7338L55.367 22.3778ZM63.0953 29.999L63.4513 30.35C63.6452 30.1534 63.643 29.8368 63.4464 29.6429L63.0953 29.999ZM45.5666 47.7741L45.2155 48.1301C45.4121 48.324 45.7287 48.3218 45.9226 48.1252L45.5666 47.7741ZM37.8382 40.1529L38.1893 39.7969C38.0847 39.6937 37.9399 39.6418 37.7935 39.6549C37.6471 39.6681 37.5139 39.745 37.4293 39.8652L37.8382 40.1529ZM43.2802 50.0926L43.6362 50.4437C43.8301 50.2471 43.8279 49.9305 43.6313 49.7366L43.2802 50.0926ZM51.9074 25.8859C51.7108 25.692 51.3942 25.6942 51.2004 25.8909C51.0065 26.0875 51.0087 26.404 51.2053 26.5979L51.9074 25.8859ZM48.4779 29.3637C48.2813 29.1698 47.9647 29.172 47.7708 29.3686C47.5769 29.5652 47.5791 29.8818 47.7758 30.0757L48.4779 29.3637ZM44.8578 33.0346C44.6612 32.8407 44.3446 32.8429 44.1508 33.0396C43.9569 33.2362 43.9591 33.5528 44.1557 33.7467L44.8578 33.0346ZM48.0734 45.232C48.27 45.4259 48.5866 45.4237 48.7805 45.2271C48.9744 45.0305 48.9722 44.7139 48.7756 44.52L48.0734 45.232ZM41.0472 36.8988C40.8506 36.7049 40.5341 36.7071 40.3402 36.9037C40.1463 37.1003 40.1485 37.4169 40.3451 37.6108L41.0472 36.8988ZM18.1817 78.6356C18.6492 79.0966 19.1667 79.3139 19.6823 79.3572C20.1864 79.3995 20.6546 79.273 21.038 79.1055C21.4225 78.9375 21.745 78.7182 21.9684 78.5449C22.0811 78.4574 22.1712 78.3796 22.2342 78.3226C22.2658 78.2941 22.2907 78.2706 22.3085 78.2535C22.3174 78.245 22.3244 78.2381 22.3297 78.2329C22.3323 78.2303 22.3344 78.2282 22.3361 78.2265C22.337 78.2256 22.3377 78.2249 22.3383 78.2243C22.3386 78.224 22.3389 78.2237 22.3391 78.2235C22.3392 78.2234 22.3394 78.2232 22.3394 78.2231C22.3396 78.223 22.3397 78.2228 21.9837 77.8718C21.6277 77.5207 21.6278 77.5206 21.628 77.5204C21.628 77.5204 21.6281 77.5203 21.6282 77.5202C21.6283 77.5201 21.6284 77.52 21.6285 77.5199C21.6286 77.5198 21.6286 77.5197 21.6286 77.5198C21.6284 77.52 21.6278 77.5206 21.6268 77.5216C21.6247 77.5237 21.6209 77.5274 21.6154 77.5326C21.6045 77.5432 21.587 77.5597 21.5634 77.581C21.5162 77.6237 21.4454 77.6849 21.3554 77.7548C21.1732 77.8961 20.9227 78.0646 20.6377 78.1891C20.3516 78.3141 20.0537 78.3848 19.7658 78.3607C19.4895 78.3375 19.1892 78.2247 18.8838 77.9236L18.1817 78.6356ZM22.3397 78.2228L68.829 31.08L68.117 30.3779L21.6277 77.5207L22.3397 78.2228ZM68.8241 30.3729L58.0044 19.7033L57.3022 20.4153L68.1219 31.0849L68.8241 30.3729ZM57.2973 19.7082L55.011 22.0267L55.723 22.7288L58.0093 20.4103L57.2973 19.7082ZM55.0159 22.7338L62.7442 30.355L63.4464 29.6429L55.718 22.0218L55.0159 22.7338ZM45.9176 47.4181L38.1893 39.7969L37.4871 40.5089L45.2155 48.1301L45.9176 47.4181ZM37.8382 40.1529C37.4293 39.8652 37.4292 39.8653 37.4291 39.8655C37.429 39.8656 37.4289 39.8658 37.4288 39.8659C37.4286 39.8662 37.4283 39.8666 37.4281 39.867C37.4275 39.8677 37.4269 39.8687 37.4261 39.8698C37.4246 39.872 37.4226 39.8748 37.4202 39.8783C37.4154 39.8853 37.4089 39.895 37.4009 39.9071C37.3848 39.9312 37.3626 39.9654 37.3357 40.0088C37.2819 40.0953 37.2089 40.219 37.1285 40.3728C36.9685 40.6787 36.7744 41.1125 36.6454 41.617C36.387 42.6274 36.3798 43.9901 37.5193 45.1138L38.2215 44.4018C37.4289 43.6202 37.4056 42.6806 37.6142 41.8648C37.7187 41.4562 37.8787 41.0961 38.0146 40.8362C38.0821 40.7072 38.1425 40.605 38.1851 40.5365C38.2063 40.5023 38.223 40.4767 38.2338 40.4604C38.2392 40.4522 38.2432 40.4465 38.2454 40.4431C38.2466 40.4415 38.2473 40.4404 38.2476 40.44C38.2477 40.4398 38.2478 40.4398 38.2477 40.4399C38.2476 40.4399 38.2476 40.44 38.2475 40.4402C38.2474 40.4402 38.2473 40.4404 38.2473 40.4404C38.2472 40.4405 38.2471 40.4407 37.8382 40.1529ZM37.5193 45.1138C37.5246 45.1191 37.5299 45.1243 37.5352 45.1295C37.5405 45.1347 37.5458 45.1399 37.551 45.1451C37.5563 45.1503 37.5616 45.1555 37.5669 45.1607C37.5722 45.1659 37.5775 45.1712 37.5827 45.1764C37.588 45.1816 37.5933 45.1868 37.5986 45.192C37.6039 45.1972 37.6091 45.2024 37.6144 45.2076C37.6197 45.2128 37.625 45.218 37.6303 45.2232C37.6356 45.2285 37.6408 45.2337 37.6461 45.2389C37.6514 45.2441 37.6567 45.2493 37.662 45.2545C37.6672 45.2597 37.6725 45.2649 37.6778 45.2701C37.6831 45.2753 37.6884 45.2805 37.6937 45.2857C37.6989 45.291 37.7042 45.2962 37.7095 45.3014C37.7148 45.3066 37.7201 45.3118 37.7253 45.317C37.7306 45.3222 37.7359 45.3274 37.7412 45.3326C37.7465 45.3378 37.7517 45.343 37.757 45.3482C37.7623 45.3534 37.7676 45.3586 37.7728 45.3638C37.7781 45.369 37.7834 45.3742 37.7887 45.3795C37.794 45.3847 37.7992 45.3899 37.8045 45.3951C37.8098 45.4003 37.8151 45.4055 37.8203 45.4107C37.8256 45.4159 37.8309 45.4211 37.8362 45.4263C37.8414 45.4315 37.8467 45.4367 37.852 45.4419C37.8573 45.4471 37.8625 45.4523 37.8678 45.4575C37.8731 45.4627 37.8784 45.4679 37.8836 45.4731C37.8889 45.4783 37.8942 45.4835 37.8994 45.4887C37.9047 45.4939 37.91 45.4991 37.9153 45.5043C37.9205 45.5095 37.9258 45.5147 37.9311 45.5199C37.9363 45.5251 37.9416 45.5303 37.9469 45.5355C37.9521 45.5407 37.9574 45.5458 37.9627 45.551C37.9679 45.5562 37.9732 45.5614 37.9785 45.5666C37.9837 45.5718 37.989 45.577 37.9943 45.5822C37.9995 45.5874 38.0048 45.5926 38.0101 45.5978C38.0153 45.603 38.0206 45.6082 38.0259 45.6133C38.0311 45.6185 38.0364 45.6237 38.0416 45.6289C38.0469 45.6341 38.0522 45.6393 38.0574 45.6445C38.0627 45.6497 38.0679 45.6548 38.0732 45.66C38.0785 45.6652 38.0837 45.6704 38.089 45.6756C38.0942 45.6808 38.0995 45.686 38.1047 45.6911C38.11 45.6963 38.1153 45.7015 38.1205 45.7067C38.1258 45.7119 38.131 45.717 38.1363 45.7222C38.1415 45.7274 38.1468 45.7326 38.152 45.7378C38.1573 45.7429 38.1625 45.7481 38.1678 45.7533C38.173 45.7585 38.1783 45.7636 38.1835 45.7688C38.1888 45.774 38.194 45.7792 38.1993 45.7843C38.2045 45.7895 38.2097 45.7947 38.215 45.7999C38.2202 45.805 38.2255 45.8102 38.2307 45.8154C38.236 45.8205 38.2412 45.8257 38.2464 45.8309C38.2517 45.836 38.2569 45.8412 38.2622 45.8464C38.2674 45.8515 38.2726 45.8567 38.2779 45.8619C38.2831 45.867 38.2883 45.8722 38.2936 45.8774C38.2988 45.8825 38.3041 45.8877 38.3093 45.8928C38.3145 45.898 38.3197 45.9032 38.325 45.9083C38.3302 45.9135 38.3354 45.9186 38.3407 45.9238C38.3459 45.9289 38.3511 45.9341 38.3564 45.9393C38.3616 45.9444 38.3668 45.9496 38.372 45.9547C38.3773 45.9599 38.3825 45.965 38.3877 45.9702C38.3929 45.9753 38.3981 45.9805 38.4034 45.9856C38.4086 45.9908 38.4138 45.9959 38.419 46.0011C38.4242 46.0062 38.4294 46.0113 38.4347 46.0165C38.4399 46.0216 38.4451 46.0268 38.4503 46.0319C38.4555 46.037 38.4607 46.0422 38.4659 46.0473C38.4712 46.0525 38.4764 46.0576 38.4816 46.0627C38.4868 46.0679 38.492 46.073 38.4972 46.0781C38.5024 46.0833 38.5076 46.0884 38.5128 46.0935C38.518 46.0987 38.5232 46.1038 38.5284 46.1089C38.5336 46.1141 38.5388 46.1192 38.544 46.1243C38.5492 46.1294 38.5544 46.1346 38.5596 46.1397C38.5648 46.1448 38.57 46.1499 38.5752 46.155C38.5804 46.1602 38.5856 46.1653 38.5908 46.1704C38.5959 46.1755 38.6011 46.1806 38.6063 46.1858C38.6115 46.1909 38.6167 46.196 38.6219 46.2011C38.6271 46.2062 38.6322 46.2113 38.6374 46.2164C38.6426 46.2215 38.6478 46.2266 38.653 46.2318C38.6581 46.2369 38.6633 46.242 38.6685 46.2471C38.6737 46.2522 38.6788 46.2573 38.684 46.2624C38.6892 46.2675 38.6944 46.2726 38.6995 46.2777C38.7047 46.2828 38.7099 46.2879 38.715 46.293C38.7202 46.2981 38.7254 46.3032 38.7305 46.3082C38.7357 46.3133 38.7409 46.3184 38.746 46.3235C38.7512 46.3286 38.7563 46.3337 38.7615 46.3388C38.7667 46.3439 38.7718 46.349 38.777 46.354C38.7821 46.3591 38.7873 46.3642 38.7924 46.3693C38.7976 46.3744 38.8027 46.3794 38.8079 46.3845C38.813 46.3896 38.8182 46.3947 38.8233 46.3997C38.8284 46.4048 38.8336 46.4099 38.8387 46.4149C38.8439 46.42 38.849 46.4251 38.8541 46.4302C38.8593 46.4352 38.8644 46.4403 38.8696 46.4453C38.8747 46.4504 38.8798 46.4555 38.885 46.4605C38.8901 46.4656 38.8952 46.4706 38.9003 46.4757C38.9055 46.4808 38.9106 46.4858 38.9157 46.4909C38.9208 46.4959 38.926 46.501 38.9311 46.506C38.9362 46.5111 38.9413 46.5161 38.9464 46.5212C38.9515 46.5262 38.9567 46.5312 38.9618 46.5363C38.9669 46.5413 38.972 46.5464 38.9771 46.5514C38.9822 46.5564 38.9873 46.5615 38.9924 46.5665C38.9975 46.5715 39.0026 46.5766 39.0077 46.5816C39.0128 46.5866 39.0179 46.5917 39.023 46.5967C39.0281 46.6017 39.0332 46.6067 39.0383 46.6118C39.0434 46.6168 39.0485 46.6218 39.0536 46.6268C39.0587 46.6319 39.0638 46.6369 39.0689 46.6419C39.0739 46.6469 39.079 46.6519 39.0841 46.6569C39.0892 46.6619 39.0943 46.6669 39.0993 46.672C39.1044 46.677 39.1095 46.682 39.1146 46.687C39.1196 46.692 39.1247 46.697 39.1298 46.702C39.1349 46.707 39.1399 46.712 39.145 46.717C39.1501 46.722 39.1551 46.7269 39.1602 46.7319C39.1652 46.7369 39.1703 46.7419 39.1754 46.7469C39.1804 46.7519 39.1855 46.7569 39.1905 46.7619C39.1956 46.7668 39.2006 46.7718 39.2057 46.7768C39.2107 46.7818 39.2158 46.7868 39.2208 46.7917C39.2258 46.7967 39.2309 46.8017 39.2359 46.8066C39.241 46.8116 39.246 46.8166 39.251 46.8215C39.2561 46.8265 39.2611 46.8315 39.2661 46.8364C39.2712 46.8414 39.2762 46.8463 39.2812 46.8513C39.2862 46.8563 39.2913 46.8612 39.2963 46.8662C39.3013 46.8711 39.3063 46.8761 39.3113 46.881C39.3164 46.886 39.3214 46.8909 39.3264 46.8958C39.3314 46.9008 39.3364 46.9057 39.3414 46.9107C39.3464 46.9156 39.3514 46.9205 39.3564 46.9255C39.3614 46.9304 39.3664 46.9353 39.3714 46.9403C39.3764 46.9452 39.3814 46.9501 39.3864 46.955C39.3914 46.96 39.3964 46.9649 39.4014 46.9698C39.4064 46.9747 39.4114 46.9796 39.4163 46.9846C39.4213 46.9895 39.4263 46.9944 39.4313 46.9993C39.4363 47.0042 39.4412 47.0091 39.4462 47.014C39.4512 47.0189 39.4562 47.0238 39.4611 47.0287C39.4661 47.0336 39.4711 47.0385 39.476 47.0434C39.481 47.0483 39.4859 47.0532 39.4909 47.0581C39.4959 47.063 39.5008 47.0679 39.5058 47.0727C39.5107 47.0776 39.5157 47.0825 39.5206 47.0874C39.5256 47.0923 39.5305 47.0971 39.5355 47.102C39.5404 47.1069 39.5453 47.1118 39.5503 47.1166C39.5552 47.1215 39.5601 47.1264 39.5651 47.1312C39.57 47.1361 39.5749 47.141 39.5799 47.1458C39.5848 47.1507 39.5897 47.1555 39.5946 47.1604C39.5996 47.1652 39.6045 47.1701 39.6094 47.1749C39.6143 47.1798 39.6192 47.1846 39.6241 47.1895C39.629 47.1943 39.634 47.1991 39.6389 47.204C39.6438 47.2088 39.6487 47.2137 39.6536 47.2185C39.6585 47.2233 39.6634 47.2281 39.6683 47.233C39.6731 47.2378 39.678 47.2426 39.6829 47.2474C39.6878 47.2523 39.6927 47.2571 39.6976 47.2619C39.7025 47.2667 39.7073 47.2715 39.7122 47.2763C39.7171 47.2811 39.722 47.2859 39.7268 47.2907C39.7317 47.2955 39.7366 47.3003 39.7414 47.3051C39.7463 47.3099 39.7512 47.3147 39.756 47.3195C39.7609 47.3243 39.7657 47.3291 39.7706 47.3339C39.7755 47.3387 39.7803 47.3435 39.7852 47.3482C39.79 47.353 39.7948 47.3578 39.7997 47.3626C39.8045 47.3674 39.8094 47.3721 39.8142 47.3769C39.819 47.3817 39.8239 47.3864 39.8287 47.3912C39.8335 47.396 39.8384 47.4007 39.8432 47.4055C39.848 47.4102 39.8528 47.415 39.8576 47.4197C39.8625 47.4245 39.8673 47.4292 39.8721 47.434C39.8769 47.4387 39.8817 47.4435 39.8865 47.4482C39.8913 47.4529 39.8961 47.4577 39.9009 47.4624C39.9057 47.4671 39.9105 47.4719 39.9153 47.4766C39.9201 47.4813 39.9249 47.486 39.9297 47.4908C39.9345 47.4955 39.9392 47.5002 39.944 47.5049C39.9488 47.5096 39.9536 47.5143 39.9583 47.519C39.9631 47.5237 39.9679 47.5285 39.9727 47.5332C39.9774 47.5379 39.9822 47.5426 39.9869 47.5472C39.9917 47.5519 39.9965 47.5566 40.0012 47.5613C40.006 47.566 40.0107 47.5707 40.0155 47.5754C40.0202 47.5801 40.025 47.5847 40.0297 47.5894C40.0344 47.5941 40.0392 47.5988 40.0439 47.6034C40.0487 47.6081 40.0534 47.6128 40.0581 47.6174C40.0628 47.6221 40.0676 47.6267 40.0723 47.6314C40.077 47.6361 40.0817 47.6407 40.0864 47.6454C40.0912 47.65 40.0959 47.6547 40.1006 47.6593C40.1053 47.6639 40.11 47.6686 40.1147 47.6732C40.1194 47.6778 40.1241 47.6825 40.1288 47.6871C40.1335 47.6917 40.1382 47.6964 40.1428 47.701C40.1475 47.7056 40.1522 47.7102 40.1569 47.7148C40.1616 47.7195 40.1663 47.7241 40.1709 47.7287C40.1756 47.7333 40.1803 47.7379 40.1849 47.7425C40.1896 47.7471 40.1943 47.7517 40.1989 47.7563C40.2036 47.7609 40.2082 47.7655 40.2129 47.77C40.2175 47.7746 40.2222 47.7792 40.2268 47.7838C40.2315 47.7884 40.2361 47.793 40.2408 47.7975C40.2454 47.8021 40.25 47.8067 40.2547 47.8112C40.2593 47.8158 40.2639 47.8204 40.2685 47.8249C40.2732 47.8295 40.2778 47.834 40.2824 47.8386C40.287 47.8431 40.2916 47.8477 40.2962 47.8522C40.3008 47.8568 40.3054 47.8613 40.31 47.8659C40.3146 47.8704 40.3192 47.8749 40.3238 47.8795C40.3284 47.884 40.333 47.8885 40.3376 47.893C40.3422 47.8976 40.3468 47.9021 40.3513 47.9066C40.3559 47.9111 40.3605 47.9156 40.3651 47.9201C40.3696 47.9246 40.3742 47.9291 40.3788 47.9336C40.3833 47.9381 40.3879 47.9426 40.3924 47.9471C40.397 47.9516 40.4016 47.9561 40.4061 47.9606C40.4106 47.9651 40.4152 47.9696 40.4197 47.974C40.4243 47.9785 40.4288 47.983 40.4333 47.9874C40.4379 47.9919 40.4424 47.9964 40.4469 48.0008C40.4514 48.0053 40.456 48.0098 40.4605 48.0142C40.465 48.0187 40.4695 48.0231 40.474 48.0276C40.4785 48.032 40.483 48.0365 40.4875 48.0409C40.492 48.0453 40.4965 48.0498 40.501 48.0542C40.5055 48.0586 40.51 48.0631 40.5145 48.0675C40.519 48.0719 40.5235 48.0763 40.5279 48.0807C40.5324 48.0852 40.5369 48.0896 40.5414 48.094C40.5458 48.0984 40.5503 48.1028 40.5548 48.1072C40.5592 48.1116 40.5637 48.116 40.5681 48.1204C40.5726 48.1248 40.577 48.1291 40.5815 48.1335C40.5859 48.1379 40.5904 48.1423 40.5948 48.1467C40.5992 48.151 40.6037 48.1554 40.6081 48.1598C40.6125 48.1641 40.6169 48.1685 40.6214 48.1729C40.6258 48.1772 40.6302 48.1816 40.6346 48.1859C40.639 48.1903 40.6434 48.1946 40.6478 48.199C40.6522 48.2033 40.6566 48.2076 40.661 48.212C40.6654 48.2163 40.6698 48.2206 40.6742 48.225C40.6786 48.2293 40.683 48.2336 40.6873 48.2379C40.6917 48.2422 40.6961 48.2465 40.7004 48.2509C40.7048 48.2552 40.7092 48.2595 40.7135 48.2638C40.7179 48.2681 40.7223 48.2724 40.7266 48.2767C40.731 48.2809 40.7353 48.2852 40.7396 48.2895C40.744 48.2938 40.7483 48.2981 40.7527 48.3023C40.757 48.3066 40.7613 48.3109 40.7657 48.3152C40.77 48.3194 40.7743 48.3237 40.7786 48.3279C40.7829 48.3322 40.7872 48.3364 40.7916 48.3407C40.7959 48.3449 40.8002 48.3492 40.8045 48.3534C40.8088 48.3577 40.8131 48.3619 40.8173 48.3661C40.8216 48.3704 40.8259 48.3746 40.8302 48.3788C40.8345 48.383 40.8388 48.3872 40.843 48.3915C40.8473 48.3957 40.8516 48.3999 40.8558 48.4041C40.8601 48.4083 40.8644 48.4125 40.8686 48.4167C40.8729 48.4209 40.8771 48.4251 40.8814 48.4293C40.8856 48.4334 40.8898 48.4376 40.8941 48.4418C40.8983 48.446 40.9025 48.4501 40.9068 48.4543C40.911 48.4585 40.9152 48.4626 40.9194 48.4668C40.9236 48.471 40.9279 48.4751 40.9321 48.4793C40.9363 48.4834 40.9405 48.4876 40.9447 48.4917C40.9489 48.4958 40.9531 48.5 40.9573 48.5041C40.9614 48.5082 40.9656 48.5124 40.9698 48.5165C40.974 48.5206 40.9782 48.5247 40.9823 48.5288C40.9865 48.5329 40.9907 48.5371 40.9948 48.5412C40.999 48.5453 41.0031 48.5494 41.0073 48.5534C41.0114 48.5575 41.0156 48.5616 41.0197 48.5657C41.0239 48.5698 41.028 48.5739 41.0321 48.578C41.0363 48.582 41.0404 48.5861 41.0445 48.5902C41.0486 48.5942 41.0528 48.5983 41.0569 48.6023C41.061 48.6064 41.0651 48.6104 41.0692 48.6145C41.0733 48.6185 41.0774 48.6226 41.0815 48.6266C41.0856 48.6307 41.0897 48.6347 41.0938 48.6387C41.0978 48.6427 41.1019 48.6468 41.106 48.6508C41.1101 48.6548 41.1141 48.6588 41.1182 48.6628C41.1223 48.6668 41.1263 48.6708 41.1304 48.6748C41.1344 48.6788 41.1385 48.6828 41.1425 48.6868C41.1466 48.6908 41.1506 48.6948 41.1546 48.6987C41.1587 48.7027 41.1627 48.7067 41.1667 48.7107C41.1707 48.7146 41.1748 48.7186 41.1788 48.7225C41.1828 48.7265 41.1868 48.7305 41.1908 48.7344C41.1948 48.7384 41.1988 48.7423 41.2028 48.7462C41.2068 48.7502 41.2108 48.7541 41.2148 48.758C41.2187 48.762 41.2227 48.7659 41.2267 48.7698C41.2307 48.7737 41.2346 48.7776 41.2386 48.7815C41.2426 48.7854 41.2465 48.7893 41.2505 48.7932C41.2544 48.7971 41.2584 48.801 41.2623 48.8049C41.2662 48.8088 41.2702 48.8127 41.2741 48.8166C41.278 48.8204 41.282 48.8243 41.2859 48.8282C41.2898 48.832 41.2937 48.8359 41.2976 48.8398C41.3015 48.8436 41.3054 48.8475 41.3093 48.8513C41.3132 48.8552 41.3171 48.859 41.321 48.8628C41.3249 48.8667 41.3288 48.8705 41.3327 48.8743C41.3366 48.8781 41.3404 48.882 41.3443 48.8858C41.3482 48.8896 41.352 48.8934 41.3559 48.8972C41.3597 48.901 41.3636 48.9048 41.3674 48.9086C41.3713 48.9124 41.3751 48.9162 41.379 48.92C41.3828 48.9237 41.3866 48.9275 41.3905 48.9313C41.3943 48.9351 41.3981 48.9388 41.4019 48.9426C41.4057 48.9464 41.4095 48.9501 41.4133 48.9539C41.4171 48.9576 41.4209 48.9614 41.4247 48.9651C41.4285 48.9688 41.4323 48.9726 41.4361 48.9763C41.4399 48.98 41.4436 48.9838 41.4474 48.9875C41.4512 48.9912 41.455 48.9949 41.4587 48.9986C41.4625 49.0023 41.4662 49.006 41.47 49.0097C41.4737 49.0134 41.4775 49.0171 41.4812 49.0208C41.4849 49.0245 41.4887 49.0281 41.4924 49.0318C41.4961 49.0355 41.4998 49.0392 41.5035 49.0428C41.5073 49.0465 41.511 49.0501 41.5147 49.0538C41.5184 49.0574 41.5221 49.0611 41.5258 49.0647C41.5295 49.0684 41.5331 49.072 41.5368 49.0756C41.5405 49.0793 41.5442 49.0829 41.5478 49.0865C41.5515 49.0901 41.5552 49.0937 41.5588 49.0973C41.5625 49.101 41.5661 49.1046 41.5698 49.1081C41.5734 49.1117 41.5771 49.1153 41.5807 49.1189C41.5843 49.1225 41.588 49.1261 41.5916 49.1297C41.5952 49.1332 41.5988 49.1368 41.6025 49.1404C41.6061 49.1439 41.6097 49.1475 41.6133 49.151C41.6169 49.1546 41.6205 49.1581 41.6241 49.1617C41.6276 49.1652 41.6312 49.1687 41.6348 49.1723C41.6384 49.1758 41.6419 49.1793 41.6455 49.1828C41.6491 49.1863 41.6526 49.1898 41.6562 49.1933C41.6597 49.1968 41.6633 49.2003 41.6668 49.2038C41.6704 49.2073 41.6739 49.2108 41.6774 49.2143C41.681 49.2178 41.6845 49.2212 41.688 49.2247C41.6915 49.2282 41.695 49.2316 41.6985 49.2351C41.702 49.2386 41.7055 49.242 41.709 49.2455C41.7125 49.2489 41.716 49.2523 41.7195 49.2558C41.723 49.2592 41.7265 49.2626 41.7299 49.2661C41.7334 49.2695 41.7369 49.2729 41.7403 49.2763C41.7438 49.2797 41.7472 49.2831 41.7507 49.2865C41.7541 49.2899 41.7575 49.2933 41.761 49.2967C41.7644 49.3001 41.7678 49.3034 41.7713 49.3068C41.7747 49.3102 41.7781 49.3136 41.7815 49.3169C41.7849 49.3203 41.7883 49.3236 41.7917 49.327C41.7951 49.3303 41.7985 49.3337 41.8019 49.337C41.8053 49.3404 41.8086 49.3437 41.812 49.347C41.8154 49.3503 41.8187 49.3536 41.8221 49.357C41.8255 49.3603 41.8288 49.3636 41.8322 49.3669C41.8355 49.3702 41.8388 49.3735 41.8422 49.3768C41.8455 49.38 41.8488 49.3833 41.8522 49.3866C41.8555 49.3899 41.8588 49.3931 41.8621 49.3964C41.8654 49.3997 41.8687 49.4029 41.872 49.4062C41.8753 49.4094 41.8786 49.4127 41.8819 49.4159C41.8852 49.4192 41.8884 49.4224 41.8917 49.4256C41.895 49.4288 41.8983 49.4321 41.9015 49.4353C41.9048 49.4385 41.908 49.4417 41.9113 49.4449C41.9145 49.4481 41.9177 49.4513 41.921 49.4545C41.9242 49.4577 41.9274 49.4608 41.9307 49.464C41.9339 49.4672 41.9371 49.4703 41.9403 49.4735C41.9435 49.4767 41.9467 49.4798 41.9499 49.483C41.9531 49.4861 41.9563 49.4893 41.9595 49.4924C41.9626 49.4955 41.9658 49.4987 41.969 49.5018C41.9721 49.5049 41.9753 49.508 41.9785 49.5111C41.9816 49.5143 41.9848 49.5174 41.9879 49.5205C41.991 49.5236 41.9942 49.5266 41.9973 49.5297C42.0004 49.5328 42.0036 49.5359 42.0067 49.539C42.0098 49.542 42.0129 49.5451 42.016 49.5482C42.0191 49.5512 42.0222 49.5543 42.0253 49.5573C42.0284 49.5604 42.0314 49.5634 42.0345 49.5664C42.0376 49.5695 42.0407 49.5725 42.0437 49.5755C42.0468 49.5785 42.0498 49.5815 42.0529 49.5846C42.0559 49.5876 42.059 49.5906 42.062 49.5935C42.0651 49.5965 42.0681 49.5995 42.0711 49.6025C42.0741 49.6055 42.0771 49.6085 42.0801 49.6114C42.0832 49.6144 42.0862 49.6174 42.0891 49.6203C42.0921 49.6233 42.0951 49.6262 42.0981 49.6291C42.1011 49.6321 42.1041 49.635 42.107 49.6379C42.11 49.6409 42.113 49.6438 42.1159 49.6467C42.1189 49.6496 42.1218 49.6525 42.1248 49.6554C42.1277 49.6583 42.1306 49.6612 42.1335 49.6641C42.1365 49.667 42.1394 49.6699 42.1423 49.6727C42.1452 49.6756 42.1481 49.6785 42.151 49.6813C42.1539 49.6842 42.1568 49.687 42.1597 49.6899C42.1626 49.6927 42.1655 49.6956 42.1683 49.6984C42.1712 49.7012 42.1741 49.704 42.1769 49.7069C42.1798 49.7097 42.1826 49.7125 42.1855 49.7153C42.1883 49.7181 42.1911 49.7209 42.194 49.7237C42.1968 49.7265 42.1996 49.7292 42.2024 49.732C42.2052 49.7348 42.2081 49.7376 42.2109 49.7403C42.2137 49.7431 42.2164 49.7458 42.2192 49.7486C42.222 49.7513 42.2248 49.7541 42.2276 49.7568C42.2303 49.7595 42.2331 49.7623 42.2359 49.765C42.2386 49.7677 42.2414 49.7704 42.2441 49.7731C42.2469 49.7758 42.2496 49.7785 42.2523 49.7812C42.2551 49.7839 42.2578 49.7866 42.2605 49.7893C42.2632 49.7919 42.2659 49.7946 42.2686 49.7973C42.2713 49.7999 42.274 49.8026 42.2767 49.8052C42.2794 49.8079 42.2821 49.8105 42.2847 49.8132C42.2874 49.8158 42.2901 49.8184 42.2927 49.821C42.2954 49.8237 42.298 49.8263 42.3007 49.8289C42.3033 49.8315 42.3059 49.8341 42.3086 49.8367C42.3112 49.8393 42.3138 49.8419 42.3164 49.8444C42.319 49.847 42.3216 49.8496 42.3242 49.8521C42.3268 49.8547 42.3294 49.8573 42.332 49.8598C42.3346 49.8624 42.3372 49.8649 42.3397 49.8674C42.3423 49.87 42.3449 49.8725 42.3474 49.875C42.35 49.8775 42.3525 49.88 42.3551 49.8825C42.3576 49.885 42.3601 49.8875 42.3627 49.89C42.3652 49.8925 42.3677 49.895 42.3702 49.8975C42.3727 49.8999 42.3752 49.9024 42.3777 49.9049C42.3802 49.9073 42.3827 49.9098 42.3852 49.9122C42.3877 49.9147 42.3901 49.9171 42.3926 49.9195C42.3951 49.922 42.3975 49.9244 42.4 49.9268C42.4024 49.9292 42.4049 49.9316 42.4073 49.934C42.4097 49.9364 42.4121 49.9388 42.4146 49.9412C42.417 49.9436 42.4194 49.946 42.4218 49.9483C42.4242 49.9507 42.4266 49.9531 42.429 49.9554C42.4314 49.9578 42.4338 49.9601 42.4361 49.9625C42.4385 49.9648 42.4409 49.9671 42.4432 49.9695C42.4456 49.9718 42.4479 49.9741 42.4503 49.9764C42.4526 49.9787 42.4549 49.981 42.4573 49.9833C42.4596 49.9856 42.4619 49.9879 42.4642 49.9902C42.4665 49.9925 42.4688 49.9947 42.4711 49.997C42.4734 49.9993 42.4757 50.0015 42.478 50.0038C42.4803 50.006 42.4826 50.0083 42.4848 50.0105C42.4871 50.0127 42.4893 50.0149 42.4916 50.0172C42.4938 50.0194 42.4961 50.0216 42.4983 50.0238C42.5005 50.026 42.5028 50.0282 42.505 50.0304C42.5072 50.0326 42.5094 50.0347 42.5116 50.0369C42.5138 50.0391 42.516 50.0413 42.5182 50.0434C42.5204 50.0456 42.5226 50.0477 42.5247 50.0499C42.5269 50.052 42.5291 50.0541 42.5312 50.0563C42.5334 50.0584 42.5355 50.0605 42.5377 50.0626C42.5398 50.0647 42.5419 50.0668 42.5441 50.0689C42.5462 50.071 42.5483 50.0731 42.5504 50.0752C42.5525 50.0772 42.5546 50.0793 42.5567 50.0814C42.5588 50.0834 42.5609 50.0855 42.5629 50.0875C42.565 50.0896 42.5671 50.0916 42.5691 50.0936C42.5712 50.0957 42.5733 50.0977 42.5753 50.0997C42.5773 50.1017 42.5794 50.1037 42.5814 50.1057C42.5834 50.1077 42.5854 50.1097 42.5875 50.1117C42.5895 50.1137 42.5915 50.1157 42.5935 50.1176C42.5955 50.1196 42.5974 50.1215 42.5994 50.1235C42.6014 50.1254 42.6034 50.1274 42.6053 50.1293C42.6073 50.1313 42.6092 50.1332 42.6112 50.1351C42.6131 50.137 42.6151 50.1389 42.617 50.1408C42.6189 50.1427 42.6208 50.1446 42.6227 50.1465C42.6247 50.1484 42.6266 50.1503 42.6285 50.1521C42.6304 50.154 42.6322 50.1559 42.6341 50.1577C42.636 50.1596 42.6379 50.1614 42.6397 50.1633C42.6416 50.1651 42.6434 50.1669 42.6453 50.1687C42.6471 50.1706 42.649 50.1724 42.6508 50.1742C42.6526 50.176 42.6545 50.1778 42.6563 50.1796C42.6581 50.1813 42.6599 50.1831 42.6617 50.1849C42.6635 50.1867 42.6653 50.1884 42.667 50.1902C42.6688 50.1919 42.6706 50.1937 42.6723 50.1954C42.6741 50.1972 42.6759 50.1989 42.6776 50.2006C42.6794 50.2023 42.6811 50.204 42.6828 50.2057C42.6845 50.2074 42.6863 50.2091 42.688 50.2108C42.6897 50.2125 42.6914 50.2142 42.6931 50.2159C42.6948 50.2175 42.6965 50.2192 42.6981 50.2209C42.6998 50.2225 42.7015 50.2242 42.7031 50.2258C42.7048 50.2274 42.7065 50.2291 42.7081 50.2307C42.7097 50.2323 42.7114 50.2339 42.713 50.2355C42.7146 50.2371 42.7162 50.2387 42.7179 50.2403C42.7195 50.2419 42.7211 50.2435 42.7227 50.245C42.7242 50.2466 42.7258 50.2482 42.7274 50.2497C42.729 50.2513 42.7305 50.2528 42.7321 50.2543C42.7337 50.2559 42.7352 50.2574 42.7367 50.2589C42.7383 50.2604 42.7398 50.2619 42.7413 50.2634C42.7429 50.2649 42.7444 50.2664 42.7459 50.2679C42.7474 50.2694 42.7489 50.2709 42.7504 50.2723C42.7518 50.2738 42.7533 50.2753 42.7548 50.2767C42.7563 50.2782 42.7577 50.2796 42.7592 50.281C42.7606 50.2825 42.7621 50.2839 42.7635 50.2853C42.7649 50.2867 42.7664 50.2881 42.7678 50.2895C42.7692 50.2909 42.7706 50.2923 42.772 50.2937C42.7734 50.2951 42.7748 50.2964 42.7762 50.2978C42.7776 50.2992 42.7789 50.3005 42.7803 50.3019C42.7817 50.3032 42.783 50.3045 42.7844 50.3059C42.7857 50.3072 42.787 50.3085 42.7884 50.3098C42.7897 50.3111 42.791 50.3124 42.7923 50.3137C42.7936 50.315 42.7949 50.3163 42.7962 50.3176C42.7975 50.3189 42.7988 50.3201 42.8001 50.3214C42.8014 50.3226 42.8026 50.3239 42.8039 50.3251C42.8051 50.3264 42.8064 50.3276 42.8076 50.3288C42.8089 50.33 42.8101 50.3312 42.8113 50.3324C42.8125 50.3337 42.8137 50.3348 42.8149 50.336C42.8161 50.3372 42.8173 50.3384 42.8185 50.3396C42.8197 50.3407 42.8209 50.3419 42.822 50.343C42.8232 50.3442 42.8244 50.3453 42.8255 50.3465C42.8267 50.3476 42.8278 50.3487 42.8289 50.3498C42.8301 50.3509 42.8312 50.352 42.8323 50.3531C42.8334 50.3542 42.8345 50.3553 42.8356 50.3564C42.8367 50.3575 42.8378 50.3585 42.8388 50.3596C42.8399 50.3607 42.841 50.3617 42.842 50.3628C42.8431 50.3638 42.8441 50.3648 42.8452 50.3658C42.8462 50.3669 42.8472 50.3679 42.8483 50.3689C42.8493 50.3699 42.8503 50.3709 42.8513 50.3719C42.8523 50.3729 42.8533 50.3738 42.8543 50.3748C42.8552 50.3758 42.8562 50.3767 42.8572 50.3777C42.8581 50.3786 42.8591 50.3796 42.86 50.3805C42.861 50.3814 42.8619 50.3824 42.8628 50.3833C42.8638 50.3842 42.8647 50.3851 42.8656 50.386C42.8665 50.3869 42.8674 50.3878 42.8683 50.3886C42.8692 50.3895 42.87 50.3904 42.8709 50.3912C42.8718 50.3921 42.8726 50.3929 42.8735 50.3938C42.8743 50.3946 42.8752 50.3954 42.876 50.3963C42.8768 50.3971 42.8777 50.3979 42.8785 50.3987C42.8793 50.3995 42.8801 50.4003 42.8809 50.4011C42.8817 50.4018 42.8825 50.4026 42.8832 50.4034C42.884 50.4041 42.8848 50.4049 42.8855 50.4056C42.8863 50.4064 42.887 50.4071 42.8878 50.4079C42.8885 50.4086 42.8892 50.4093 42.8899 50.41C42.8907 50.4107 42.8914 50.4114 42.8921 50.4121C42.8928 50.4128 42.8935 50.4135 42.8941 50.4141C42.8948 50.4148 42.8955 50.4155 42.8961 50.4161C42.8968 50.4168 42.8974 50.4174 42.8981 50.418C42.8987 50.4187 42.8994 50.4193 42.9 50.4199C42.9006 50.4205 42.9012 50.4211 42.9018 50.4217C42.9024 50.4223 42.903 50.4229 42.9036 50.4234C42.9042 50.424 42.9047 50.4246 42.9053 50.4251C42.9059 50.4257 42.9064 50.4262 42.907 50.4268C42.9075 50.4273 42.908 50.4278 42.9086 50.4283C42.9091 50.4289 42.9096 50.4294 42.9101 50.4299C42.9106 50.4304 42.9111 50.4308 42.9116 50.4313C42.9121 50.4318 42.9125 50.4323 42.913 50.4327C42.9135 50.4332 42.9139 50.4336 42.9144 50.4341C42.9148 50.4345 42.9152 50.4349 42.9157 50.4354C42.9161 50.4358 42.9165 50.4362 42.9169 50.4366C42.9173 50.437 42.9177 50.4374 42.9181 50.4378C42.9185 50.4381 42.9188 50.4385 42.9192 50.4389C42.9196 50.4392 42.9199 50.4396 42.9203 50.4399C42.9206 50.4402 42.921 50.4406 42.9213 50.4409C42.9216 50.4412 42.9219 50.4415 42.9222 50.4418C42.9225 50.4421 42.9228 50.4424 42.9231 50.4427C42.9234 50.443 42.9237 50.4433 42.9239 50.4435C42.9242 50.4438 42.9245 50.444 42.9247 50.4443C42.9249 50.4445 42.9252 50.4447 42.9254 50.445C42.9256 50.4452 42.9258 50.4454 42.926 50.4456C42.9263 50.4458 42.9264 50.446 42.9266 50.4462C42.9268 50.4464 42.927 50.4465 42.9272 50.4467C42.9273 50.4469 42.9275 50.447 42.9276 50.4471C42.9278 50.4473 42.9279 50.4474 42.928 50.4475C42.9281 50.4477 42.9283 50.4478 42.9284 50.4479C42.9285 50.448 42.9285 50.4481 42.9286 50.4481C42.9287 50.4482 42.9288 50.4483 42.9288 50.4484C42.9289 50.4484 42.929 50.4485 42.929 50.4485C42.929 50.4486 42.9291 50.4486 42.9291 50.4486C42.9291 50.4486 42.9291 50.4486 43.2802 50.0926C43.6313 49.7366 43.6313 49.7366 43.6312 49.7366C43.6312 49.7366 43.6312 49.7365 43.6312 49.7365C43.6311 49.7364 43.6311 49.7364 43.631 49.7363C43.6309 49.7363 43.6309 49.7362 43.6308 49.7361C43.6307 49.736 43.6306 49.7359 43.6305 49.7358C43.6304 49.7357 43.6303 49.7356 43.6302 49.7355C43.63 49.7354 43.6299 49.7353 43.6298 49.7351C43.6296 49.735 43.6295 49.7348 43.6293 49.7347C43.6291 49.7345 43.629 49.7343 43.6288 49.7342C43.6286 49.734 43.6284 49.7338 43.6282 49.7336C43.628 49.7334 43.6278 49.7332 43.6276 49.7329C43.6273 49.7327 43.6271 49.7325 43.6269 49.7322C43.6266 49.732 43.6264 49.7318 43.6261 49.7315C43.6258 49.7312 43.6256 49.731 43.6253 49.7307C43.625 49.7304 43.6247 49.7301 43.6244 49.7298C43.6241 49.7295 43.6238 49.7292 43.6234 49.7289C43.6231 49.7286 43.6228 49.7282 43.6224 49.7279C43.6221 49.7275 43.6217 49.7272 43.6214 49.7268C43.621 49.7265 43.6206 49.7261 43.6202 49.7257C43.6199 49.7253 43.6195 49.725 43.6191 49.7246C43.6187 49.7242 43.6182 49.7237 43.6178 49.7233C43.6174 49.7229 43.617 49.7225 43.6165 49.722C43.6161 49.7216 43.6156 49.7212 43.6151 49.7207C43.6147 49.7202 43.6142 49.7198 43.6137 49.7193C43.6132 49.7188 43.6127 49.7183 43.6122 49.7178C43.6117 49.7173 43.6112 49.7168 43.6107 49.7163C43.6102 49.7158 43.6097 49.7153 43.6091 49.7147C43.6086 49.7142 43.608 49.7137 43.6075 49.7131C43.6069 49.7126 43.6063 49.712 43.6057 49.7114C43.6052 49.7108 43.6046 49.7103 43.604 49.7097C43.6034 49.7091 43.6028 49.7085 43.6021 49.7079C43.6015 49.7073 43.6009 49.7066 43.6002 49.706C43.5996 49.7054 43.599 49.7047 43.5983 49.7041C43.5976 49.7034 43.597 49.7028 43.5963 49.7021C43.5956 49.7014 43.5949 49.7008 43.5942 49.7001C43.5935 49.6994 43.5928 49.6987 43.5921 49.698C43.5914 49.6973 43.5907 49.6966 43.5899 49.6958C43.5892 49.6951 43.5884 49.6944 43.5877 49.6936C43.5869 49.6929 43.5862 49.6921 43.5854 49.6914C43.5846 49.6906 43.5838 49.6898 43.583 49.689C43.5822 49.6883 43.5814 49.6875 43.5806 49.6867C43.5798 49.6859 43.579 49.6851 43.5782 49.6842C43.5773 49.6834 43.5765 49.6826 43.5756 49.6817C43.5748 49.6809 43.5739 49.6801 43.5731 49.6792C43.5722 49.6783 43.5713 49.6775 43.5704 49.6766C43.5695 49.6757 43.5686 49.6748 43.5677 49.674C43.5668 49.6731 43.5659 49.6722 43.565 49.6712C43.5641 49.6703 43.5631 49.6694 43.5622 49.6685C43.5612 49.6675 43.5603 49.6666 43.5593 49.6657C43.5584 49.6647 43.5574 49.6637 43.5564 49.6628C43.5554 49.6618 43.5544 49.6608 43.5534 49.6598C43.5524 49.6589 43.5514 49.6579 43.5504 49.6569C43.5494 49.6559 43.5484 49.6548 43.5473 49.6538C43.5463 49.6528 43.5452 49.6518 43.5442 49.6507C43.5431 49.6497 43.5421 49.6486 43.541 49.6476C43.5399 49.6465 43.5388 49.6454 43.5377 49.6444C43.5367 49.6433 43.5356 49.6422 43.5344 49.6411C43.5333 49.64 43.5322 49.6389 43.5311 49.6378C43.53 49.6367 43.5288 49.6356 43.5277 49.6344C43.5265 49.6333 43.5254 49.6322 43.5242 49.631C43.523 49.6299 43.5219 49.6287 43.5207 49.6275C43.5195 49.6264 43.5183 49.6252 43.5171 49.624C43.5159 49.6228 43.5147 49.6216 43.5135 49.6204C43.5122 49.6192 43.511 49.618 43.5098 49.6168C43.5085 49.6156 43.5073 49.6143 43.506 49.6131C43.5048 49.6119 43.5035 49.6106 43.5022 49.6094C43.501 49.6081 43.4997 49.6068 43.4984 49.6056C43.4971 49.6043 43.4958 49.603 43.4945 49.6017C43.4932 49.6004 43.4919 49.5991 43.4905 49.5978C43.4892 49.5965 43.4879 49.5952 43.4865 49.5939C43.4852 49.5925 43.4838 49.5912 43.4825 49.5898C43.4811 49.5885 43.4797 49.5871 43.4783 49.5858C43.477 49.5844 43.4756 49.5831 43.4742 49.5817C43.4728 49.5803 43.4714 49.5789 43.4699 49.5775C43.4685 49.5761 43.4671 49.5747 43.4657 49.5733C43.4642 49.5719 43.4628 49.5705 43.4613 49.569C43.4599 49.5676 43.4584 49.5661 43.457 49.5647C43.4555 49.5632 43.454 49.5618 43.4525 49.5603C43.451 49.5589 43.4495 49.5574 43.448 49.5559C43.4465 49.5544 43.445 49.5529 43.4435 49.5514C43.442 49.5499 43.4404 49.5484 43.4389 49.5469C43.4374 49.5454 43.4358 49.5438 43.4343 49.5423C43.4327 49.5408 43.4311 49.5392 43.4296 49.5377C43.428 49.5361 43.4264 49.5346 43.4248 49.533C43.4232 49.5314 43.4216 49.5299 43.42 49.5283C43.4184 49.5267 43.4168 49.5251 43.4152 49.5235C43.4135 49.5219 43.4119 49.5203 43.4103 49.5186C43.4086 49.517 43.407 49.5154 43.4053 49.5138C43.4036 49.5121 43.402 49.5105 43.4003 49.5088C43.3986 49.5072 43.3969 49.5055 43.3952 49.5038C43.3935 49.5022 43.3918 49.5005 43.3901 49.4988C43.3884 49.4971 43.3867 49.4954 43.385 49.4937C43.3832 49.492 43.3815 49.4903 43.3798 49.4886C43.378 49.4869 43.3763 49.4851 43.3745 49.4834C43.3727 49.4817 43.371 49.4799 43.3692 49.4782C43.3674 49.4764 43.3656 49.4746 43.3638 49.4729C43.362 49.4711 43.3602 49.4693 43.3584 49.4675C43.3566 49.4657 43.3548 49.464 43.353 49.4621C43.3511 49.4603 43.3493 49.4585 43.3474 49.4567C43.3456 49.4549 43.3437 49.4531 43.3419 49.4512C43.34 49.4494 43.3382 49.4475 43.3363 49.4457C43.3344 49.4438 43.3325 49.442 43.3306 49.4401C43.3287 49.4382 43.3268 49.4364 43.3249 49.4345C43.323 49.4326 43.3211 49.4307 43.3191 49.4288C43.3172 49.4269 43.3153 49.425 43.3133 49.4231C43.3114 49.4212 43.3094 49.4192 43.3075 49.4173C43.3055 49.4154 43.3035 49.4134 43.3016 49.4115C43.2996 49.4095 43.2976 49.4076 43.2956 49.4056C43.2936 49.4036 43.2916 49.4017 43.2896 49.3997C43.2876 49.3977 43.2856 49.3957 43.2836 49.3937C43.2815 49.3917 43.2795 49.3897 43.2774 49.3877C43.2754 49.3857 43.2734 49.3836 43.2713 49.3816C43.2692 49.3796 43.2672 49.3776 43.2651 49.3755C43.263 49.3735 43.2609 49.3714 43.2589 49.3693C43.2568 49.3673 43.2547 49.3652 43.2526 49.3631C43.2504 49.3611 43.2483 49.359 43.2462 49.3569C43.2441 49.3548 43.242 49.3527 43.2398 49.3506C43.2377 49.3485 43.2355 49.3464 43.2334 49.3442C43.2312 49.3421 43.2291 49.34 43.2269 49.3378C43.2247 49.3357 43.2225 49.3335 43.2204 49.3314C43.2182 49.3292 43.216 49.3271 43.2138 49.3249C43.2116 49.3227 43.2094 49.3205 43.2071 49.3184C43.2049 49.3162 43.2027 49.314 43.2005 49.3118C43.1982 49.3096 43.196 49.3074 43.1937 49.3051C43.1915 49.3029 43.1892 49.3007 43.187 49.2985C43.1847 49.2962 43.1824 49.294 43.1802 49.2917C43.1779 49.2895 43.1756 49.2872 43.1733 49.285C43.171 49.2827 43.1687 49.2804 43.1664 49.2782C43.1641 49.2759 43.1618 49.2736 43.1594 49.2713C43.1571 49.269 43.1548 49.2667 43.1524 49.2644C43.1501 49.2621 43.1477 49.2598 43.1454 49.2574C43.143 49.2551 43.1407 49.2528 43.1383 49.2504C43.1359 49.2481 43.1335 49.2458 43.1311 49.2434C43.1287 49.241 43.1264 49.2387 43.1239 49.2363C43.1215 49.2339 43.1191 49.2316 43.1167 49.2292C43.1143 49.2268 43.1119 49.2244 43.1094 49.222C43.107 49.2196 43.1046 49.2172 43.1021 49.2148C43.0997 49.2124 43.0972 49.2099 43.0947 49.2075C43.0923 49.2051 43.0898 49.2026 43.0873 49.2002C43.0849 49.1978 43.0824 49.1953 43.0799 49.1928C43.0774 49.1904 43.0749 49.1879 43.0724 49.1854C43.0699 49.183 43.0673 49.1805 43.0648 49.178C43.0623 49.1755 43.0598 49.173 43.0572 49.1705C43.0547 49.168 43.0521 49.1655 43.0496 49.163C43.047 49.1605 43.0445 49.1579 43.0419 49.1554C43.0393 49.1529 43.0368 49.1503 43.0342 49.1478C43.0316 49.1452 43.029 49.1427 43.0264 49.1401C43.0238 49.1376 43.0212 49.135 43.0186 49.1324C43.016 49.1298 43.0133 49.1272 43.0107 49.1247C43.0081 49.1221 43.0055 49.1195 43.0028 49.1169C43.0002 49.1143 42.9975 49.1116 42.9949 49.109C42.9922 49.1064 42.9895 49.1038 42.9869 49.1011C42.9842 49.0985 42.9815 49.0959 42.9788 49.0932C42.9762 49.0906 42.9735 49.0879 42.9708 49.0853C42.9681 49.0826 42.9654 49.0799 42.9626 49.0772C42.9599 49.0746 42.9572 49.0719 42.9545 49.0692C42.9517 49.0665 42.949 49.0638 42.9463 49.0611C42.9435 49.0584 42.9408 49.0557 42.938 49.053C42.9353 49.0502 42.9325 49.0475 42.9297 49.0448C42.927 49.042 42.9242 49.0393 42.9214 49.0366C42.9186 49.0338 42.9158 49.0311 42.913 49.0283C42.9102 49.0255 42.9074 49.0228 42.9046 49.02C42.9018 49.0172 42.899 49.0144 42.8961 49.0116C42.8933 49.0089 42.8905 49.0061 42.8876 49.0033C42.8848 49.0005 42.8819 48.9976 42.8791 48.9948C42.8762 48.992 42.8734 48.9892 42.8705 48.9864C42.8676 48.9835 42.8647 48.9807 42.8618 48.9778C42.859 48.975 42.8561 48.9722 42.8532 48.9693C42.8503 48.9664 42.8474 48.9636 42.8445 48.9607C42.8415 48.9578 42.8386 48.9549 42.8357 48.9521C42.8328 48.9492 42.8298 48.9463 42.8269 48.9434C42.824 48.9405 42.821 48.9376 42.8181 48.9347C42.8151 48.9318 42.8122 48.9288 42.8092 48.9259C42.8062 48.923 42.8032 48.9201 42.8003 48.9171C42.7973 48.9142 42.7943 48.9112 42.7913 48.9083C42.7883 48.9053 42.7853 48.9024 42.7823 48.8994C42.7793 48.8964 42.7763 48.8935 42.7733 48.8905C42.7702 48.8875 42.7672 48.8845 42.7642 48.8815C42.7611 48.8785 42.7581 48.8755 42.755 48.8725C42.752 48.8695 42.7489 48.8665 42.7459 48.8635C42.7428 48.8605 42.7398 48.8574 42.7367 48.8544C42.7336 48.8514 42.7305 48.8483 42.7274 48.8453C42.7243 48.8422 42.7212 48.8392 42.7181 48.8361C42.715 48.8331 42.7119 48.83 42.7088 48.8269C42.7057 48.8239 42.7026 48.8208 42.6995 48.8177C42.6963 48.8146 42.6932 48.8115 42.6901 48.8084C42.6869 48.8053 42.6838 48.8022 42.6806 48.7991C42.6775 48.796 42.6743 48.7929 42.6711 48.7898C42.668 48.7866 42.6648 48.7835 42.6616 48.7804C42.6584 48.7772 42.6552 48.7741 42.652 48.771C42.6489 48.7678 42.6457 48.7646 42.6424 48.7615C42.6392 48.7583 42.636 48.7552 42.6328 48.752C42.6296 48.7488 42.6264 48.7456 42.6231 48.7424C42.6199 48.7393 42.6167 48.7361 42.6134 48.7329C42.6102 48.7297 42.6069 48.7265 42.6037 48.7232C42.6004 48.72 42.5971 48.7168 42.5939 48.7136C42.5906 48.7104 42.5873 48.7071 42.584 48.7039C42.5808 48.7006 42.5775 48.6974 42.5742 48.6942C42.5709 48.6909 42.5676 48.6876 42.5643 48.6844C42.561 48.6811 42.5576 48.6779 42.5543 48.6746C42.551 48.6713 42.5477 48.668 42.5443 48.6647C42.541 48.6614 42.5377 48.6582 42.5343 48.6549C42.531 48.6516 42.5276 48.6482 42.5243 48.6449C42.5209 48.6416 42.5175 48.6383 42.5142 48.635C42.5108 48.6317 42.5074 48.6283 42.504 48.625C42.5006 48.6217 42.4973 48.6183 42.4939 48.615C42.4905 48.6116 42.4871 48.6083 42.4837 48.6049C42.4802 48.6015 42.4768 48.5982 42.4734 48.5948C42.47 48.5914 42.4666 48.588 42.4631 48.5847C42.4597 48.5813 42.4563 48.5779 42.4528 48.5745C42.4494 48.5711 42.4459 48.5677 42.4425 48.5643C42.439 48.5609 42.4355 48.5575 42.4321 48.554C42.4286 48.5506 42.4251 48.5472 42.4216 48.5437C42.4182 48.5403 42.4147 48.5369 42.4112 48.5334C42.4077 48.53 42.4042 48.5265 42.4007 48.5231C42.3972 48.5196 42.3937 48.5162 42.3902 48.5127C42.3866 48.5092 42.3831 48.5057 42.3796 48.5023C42.3761 48.4988 42.3725 48.4953 42.369 48.4918C42.3654 48.4883 42.3619 48.4848 42.3583 48.4813C42.3548 48.4778 42.3512 48.4743 42.3477 48.4708C42.3441 48.4673 42.3405 48.4638 42.337 48.4602C42.3334 48.4567 42.3298 48.4532 42.3262 48.4496C42.3226 48.4461 42.319 48.4425 42.3154 48.439C42.3118 48.4354 42.3082 48.4319 42.3046 48.4283C42.301 48.4248 42.2974 48.4212 42.2938 48.4176C42.2901 48.4141 42.2865 48.4105 42.2829 48.4069C42.2792 48.4033 42.2756 48.3997 42.2719 48.3961C42.2683 48.3925 42.2647 48.3889 42.261 48.3853C42.2573 48.3817 42.2537 48.3781 42.25 48.3745C42.2463 48.3709 42.2427 48.3672 42.239 48.3636C42.2353 48.36 42.2316 48.3563 42.2279 48.3527C42.2242 48.3491 42.2205 48.3454 42.2168 48.3418C42.2131 48.3381 42.2094 48.3345 42.2057 48.3308C42.202 48.3271 42.1983 48.3235 42.1945 48.3198C42.1908 48.3161 42.1871 48.3124 42.1834 48.3088C42.1796 48.3051 42.1759 48.3014 42.1721 48.2977C42.1684 48.294 42.1646 48.2903 42.1609 48.2866C42.1571 48.2829 42.1533 48.2792 42.1496 48.2754C42.1458 48.2717 42.142 48.268 42.1382 48.2643C42.1345 48.2605 42.1307 48.2568 42.1269 48.2531C42.1231 48.2493 42.1193 48.2456 42.1155 48.2418C42.1117 48.2381 42.1079 48.2343 42.1041 48.2306C42.1003 48.2268 42.0964 48.223 42.0926 48.2193C42.0888 48.2155 42.085 48.2117 42.0811 48.2079C42.0773 48.2042 42.0734 48.2004 42.0696 48.1966C42.0658 48.1928 42.0619 48.189 42.058 48.1852C42.0542 48.1814 42.0503 48.1776 42.0465 48.1738C42.0426 48.1699 42.0387 48.1661 42.0348 48.1623C42.031 48.1585 42.0271 48.1546 42.0232 48.1508C42.0193 48.147 42.0154 48.1431 42.0115 48.1393C42.0076 48.1354 42.0037 48.1316 41.9998 48.1277C41.9959 48.1239 41.992 48.12 41.988 48.1162C41.9841 48.1123 41.9802 48.1084 41.9763 48.1045C41.9723 48.1007 41.9684 48.0968 41.9645 48.0929C41.9605 48.089 41.9566 48.0851 41.9526 48.0812C41.9487 48.0773 41.9447 48.0734 41.9407 48.0695C41.9368 48.0656 41.9328 48.0617 41.9288 48.0578C41.9249 48.0539 41.9209 48.0499 41.9169 48.046C41.9129 48.0421 41.9089 48.0381 41.9049 48.0342C41.901 48.0303 41.897 48.0263 41.893 48.0224C41.8889 48.0184 41.8849 48.0145 41.8809 48.0105C41.8769 48.0066 41.8729 48.0026 41.8689 47.9986C41.8648 47.9947 41.8608 47.9907 41.8568 47.9867C41.8528 47.9827 41.8487 47.9788 41.8447 47.9748C41.8406 47.9708 41.8366 47.9668 41.8325 47.9628C41.8285 47.9588 41.8244 47.9548 41.8203 47.9508C41.8163 47.9468 41.8122 47.9428 41.8081 47.9388C41.8041 47.9347 41.8 47.9307 41.7959 47.9267C41.7918 47.9227 41.7877 47.9186 41.7836 47.9146C41.7796 47.9106 41.7755 47.9065 41.7714 47.9025C41.7673 47.8984 41.7631 47.8944 41.759 47.8903C41.7549 47.8863 41.7508 47.8822 41.7467 47.8781C41.7426 47.8741 41.7384 47.87 41.7343 47.8659C41.7302 47.8619 41.726 47.8578 41.7219 47.8537C41.7177 47.8496 41.7136 47.8455 41.7094 47.8414C41.7053 47.8373 41.7011 47.8332 41.697 47.8291C41.6928 47.825 41.6887 47.8209 41.6845 47.8168C41.6803 47.8127 41.6761 47.8086 41.672 47.8045C41.6678 47.8003 41.6636 47.7962 41.6594 47.7921C41.6552 47.7879 41.651 47.7838 41.6468 47.7797C41.6426 47.7755 41.6384 47.7714 41.6342 47.7672C41.63 47.7631 41.6258 47.7589 41.6216 47.7548C41.6174 47.7506 41.6131 47.7465 41.6089 47.7423C41.6047 47.7381 41.6005 47.7339 41.5962 47.7298C41.592 47.7256 41.5878 47.7214 41.5835 47.7172C41.5793 47.713 41.575 47.7089 41.5708 47.7047C41.5665 47.7005 41.5622 47.6963 41.558 47.6921C41.5537 47.6879 41.5495 47.6836 41.5452 47.6794C41.5409 47.6752 41.5366 47.671 41.5324 47.6668C41.5281 47.6626 41.5238 47.6583 41.5195 47.6541C41.5152 47.6499 41.5109 47.6456 41.5066 47.6414C41.5023 47.6372 41.498 47.6329 41.4937 47.6287C41.4894 47.6244 41.4851 47.6202 41.4808 47.6159C41.4765 47.6117 41.4721 47.6074 41.4678 47.6031C41.4635 47.5989 41.4592 47.5946 41.4548 47.5903C41.4505 47.586 41.4461 47.5818 41.4418 47.5775C41.4375 47.5732 41.4331 47.5689 41.4288 47.5646C41.4244 47.5603 41.4201 47.556 41.4157 47.5517C41.4113 47.5474 41.407 47.5431 41.4026 47.5388C41.3982 47.5345 41.3939 47.5302 41.3895 47.5259C41.3851 47.5216 41.3807 47.5173 41.3763 47.5129C41.372 47.5086 41.3676 47.5043 41.3632 47.4999C41.3588 47.4956 41.3544 47.4913 41.35 47.4869C41.3456 47.4826 41.3412 47.4782 41.3368 47.4739C41.3323 47.4695 41.3279 47.4652 41.3235 47.4608C41.3191 47.4565 41.3147 47.4521 41.3102 47.4477C41.3058 47.4434 41.3014 47.439 41.2969 47.4346C41.2925 47.4303 41.2881 47.4259 41.2836 47.4215C41.2792 47.4171 41.2747 47.4127 41.2703 47.4083C41.2658 47.4039 41.2614 47.3996 41.2569 47.3952C41.2524 47.3908 41.248 47.3864 41.2435 47.3819C41.239 47.3775 41.2346 47.3731 41.2301 47.3687C41.2256 47.3643 41.2211 47.3599 41.2167 47.3555C41.2122 47.351 41.2077 47.3466 41.2032 47.3422C41.1987 47.3377 41.1942 47.3333 41.1897 47.3289C41.1852 47.3244 41.1807 47.32 41.1762 47.3155C41.1717 47.3111 41.1672 47.3066 41.1626 47.3022C41.1581 47.2977 41.1536 47.2933 41.1491 47.2888C41.1446 47.2844 41.14 47.2799 41.1355 47.2754C41.131 47.271 41.1264 47.2665 41.1219 47.262C41.1173 47.2575 41.1128 47.253 41.1083 47.2486C41.1037 47.2441 41.0992 47.2396 41.0946 47.2351C41.09 47.2306 41.0855 47.2261 41.0809 47.2216C41.0764 47.2171 41.0718 47.2126 41.0672 47.2081C41.0626 47.2036 41.0581 47.1991 41.0535 47.1946C41.0489 47.19 41.0443 47.1855 41.0397 47.181C41.0352 47.1765 41.0306 47.172 41.026 47.1674C41.0214 47.1629 41.0168 47.1584 41.0122 47.1538C41.0076 47.1493 41.003 47.1448 40.9984 47.1402C40.9938 47.1357 40.9892 47.1311 40.9845 47.1266C40.9799 47.122 40.9753 47.1175 40.9707 47.1129C40.9661 47.1083 40.9614 47.1038 40.9568 47.0992C40.9522 47.0946 40.9475 47.0901 40.9429 47.0855C40.9383 47.0809 40.9336 47.0764 40.929 47.0718C40.9243 47.0672 40.9197 47.0626 40.915 47.058C40.9104 47.0534 40.9057 47.0488 40.9011 47.0443C40.8964 47.0397 40.8918 47.0351 40.8871 47.0305C40.8824 47.0259 40.8777 47.0213 40.8731 47.0166C40.8684 47.012 40.8637 47.0074 40.859 47.0028C40.8544 46.9982 40.8497 46.9936 40.845 46.989C40.8403 46.9843 40.8356 46.9797 40.8309 46.9751C40.8262 46.9705 40.8215 46.9658 40.8168 46.9612C40.8121 46.9565 40.8074 46.9519 40.8027 46.9473C40.798 46.9426 40.7933 46.938 40.7886 46.9333C40.7839 46.9287 40.7792 46.924 40.7744 46.9194C40.7697 46.9147 40.765 46.9101 40.7603 46.9054C40.7555 46.9007 40.7508 46.8961 40.7461 46.8914C40.7413 46.8867 40.7366 46.8821 40.7319 46.8774C40.7271 46.8727 40.7224 46.868 40.7176 46.8634C40.7129 46.8587 40.7081 46.854 40.7034 46.8493C40.6986 46.8446 40.6939 46.8399 40.6891 46.8352C40.6843 46.8305 40.6796 46.8258 40.6748 46.8211C40.67 46.8164 40.6653 46.8117 40.6605 46.807C40.6557 46.8023 40.651 46.7976 40.6462 46.7929C40.6414 46.7882 40.6366 46.7835 40.6318 46.7787C40.627 46.774 40.6222 46.7693 40.6175 46.7646C40.6127 46.7598 40.6079 46.7551 40.6031 46.7504C40.5983 46.7456 40.5935 46.7409 40.5887 46.7362C40.5839 46.7314 40.579 46.7267 40.5742 46.7219C40.5694 46.7172 40.5646 46.7125 40.5598 46.7077C40.555 46.703 40.5502 46.6982 40.5453 46.6934C40.5405 46.6887 40.5357 46.6839 40.5309 46.6792C40.526 46.6744 40.5212 46.6696 40.5164 46.6649C40.5115 46.6601 40.5067 46.6553 40.5018 46.6506C40.497 46.6458 40.4922 46.641 40.4873 46.6362C40.4825 46.6314 40.4776 46.6267 40.4728 46.6219C40.4679 46.6171 40.463 46.6123 40.4582 46.6075C40.4533 46.6027 40.4485 46.5979 40.4436 46.5931C40.4387 46.5883 40.4339 46.5835 40.429 46.5787C40.4241 46.5739 40.4192 46.5691 40.4144 46.5643C40.4095 46.5595 40.4046 46.5547 40.3997 46.5499C40.3949 46.545 40.39 46.5402 40.3851 46.5354C40.3802 46.5306 40.3753 46.5258 40.3704 46.5209C40.3655 46.5161 40.3606 46.5113 40.3557 46.5065C40.3508 46.5016 40.3459 46.4968 40.341 46.492C40.3361 46.4871 40.3312 46.4823 40.3263 46.4774C40.3214 46.4726 40.3165 46.4677 40.3115 46.4629C40.3066 46.4581 40.3017 46.4532 40.2968 46.4484C40.2919 46.4435 40.2869 46.4386 40.282 46.4338C40.2771 46.4289 40.2722 46.4241 40.2672 46.4192C40.2623 46.4143 40.2574 46.4095 40.2524 46.4046C40.2475 46.3997 40.2426 46.3949 40.2376 46.39C40.2327 46.3851 40.2277 46.3802 40.2228 46.3754C40.2178 46.3705 40.2129 46.3656 40.2079 46.3607C40.203 46.3558 40.198 46.3509 40.1931 46.3461C40.1881 46.3412 40.1831 46.3363 40.1782 46.3314C40.1732 46.3265 40.1682 46.3216 40.1633 46.3167C40.1583 46.3118 40.1533 46.3069 40.1484 46.302C40.1434 46.2971 40.1384 46.2922 40.1334 46.2873C40.1285 46.2824 40.1235 46.2774 40.1185 46.2725C40.1135 46.2676 40.1085 46.2627 40.1035 46.2578C40.0986 46.2529 40.0936 46.2479 40.0886 46.243C40.0836 46.2381 40.0786 46.2332 40.0736 46.2282C40.0686 46.2233 40.0636 46.2184 40.0586 46.2134C40.0536 46.2085 40.0486 46.2036 40.0436 46.1986C40.0386 46.1937 40.0336 46.1888 40.0285 46.1838C40.0235 46.1789 40.0185 46.1739 40.0135 46.169C40.0085 46.164 40.0035 46.1591 39.9984 46.1541C39.9934 46.1492 39.9884 46.1442 39.9834 46.1393C39.9783 46.1343 39.9733 46.1294 39.9683 46.1244C39.9633 46.1194 39.9582 46.1145 39.9532 46.1095C39.9482 46.1046 39.9431 46.0996 39.9381 46.0946C39.933 46.0896 39.928 46.0847 39.923 46.0797C39.9179 46.0747 39.9129 46.0697 39.9078 46.0648C39.9028 46.0598 39.8977 46.0548 39.8927 46.0498C39.8876 46.0448 39.8826 46.0399 39.8775 46.0349C39.8725 46.0299 39.8674 46.0249 39.8623 46.0199C39.8573 46.0149 39.8522 46.0099 39.8471 46.0049C39.8421 45.9999 39.837 45.9949 39.8319 45.9899C39.8269 45.9849 39.8218 45.9799 39.8167 45.9749C39.8117 45.9699 39.8066 45.9649 39.8015 45.9599C39.7964 45.9549 39.7913 45.9499 39.7863 45.9449C39.7812 45.9399 39.7761 45.9349 39.771 45.9299C39.7659 45.9248 39.7608 45.9198 39.7557 45.9148C39.7507 45.9098 39.7456 45.9048 39.7405 45.8997C39.7354 45.8947 39.7303 45.8897 39.7252 45.8847C39.7201 45.8796 39.715 45.8746 39.7099 45.8696C39.7048 45.8646 39.6997 45.8595 39.6946 45.8545C39.6895 45.8495 39.6844 45.8444 39.6793 45.8394C39.6742 45.8343 39.669 45.8293 39.6639 45.8243C39.6588 45.8192 39.6537 45.8142 39.6486 45.8091C39.6435 45.8041 39.6384 45.799 39.6332 45.794C39.6281 45.7889 39.623 45.7839 39.6179 45.7788C39.6127 45.7738 39.6076 45.7687 39.6025 45.7637C39.5974 45.7586 39.5922 45.7536 39.5871 45.7485C39.582 45.7434 39.5768 45.7384 39.5717 45.7333C39.5666 45.7283 39.5614 45.7232 39.5563 45.7181C39.5512 45.7131 39.546 45.708 39.5409 45.7029C39.5357 45.6979 39.5306 45.6928 39.5255 45.6877C39.5203 45.6826 39.5152 45.6776 39.51 45.6725C39.5049 45.6674 39.4997 45.6623 39.4946 45.6573C39.4894 45.6522 39.4843 45.6471 39.4791 45.642C39.474 45.6369 39.4688 45.6318 39.4636 45.6268C39.4585 45.6217 39.4533 45.6166 39.4482 45.6115C39.443 45.6064 39.4378 45.6013 39.4327 45.5962C39.4275 45.5911 39.4224 45.586 39.4172 45.5809C39.412 45.5758 39.4069 45.5708 39.4017 45.5657C39.3965 45.5606 39.3913 45.5555 39.3862 45.5504C39.381 45.5453 39.3758 45.5402 39.3706 45.535C39.3655 45.5299 39.3603 45.5248 39.3551 45.5197C39.3499 45.5146 39.3448 45.5095 39.3396 45.5044C39.3344 45.4993 39.3292 45.4942 39.324 45.4891C39.3188 45.484 39.3137 45.4788 39.3085 45.4737C39.3033 45.4686 39.2981 45.4635 39.2929 45.4584C39.2877 45.4533 39.2825 45.4481 39.2773 45.443C39.2721 45.4379 39.2669 45.4328 39.2618 45.4277C39.2566 45.4225 39.2514 45.4174 39.2462 45.4123C39.241 45.4072 39.2358 45.402 39.2306 45.3969C39.2254 45.3918 39.2202 45.3866 39.215 45.3815C39.2098 45.3764 39.2045 45.3713 39.1993 45.3661C39.1941 45.361 39.1889 45.3558 39.1837 45.3507C39.1785 45.3456 39.1733 45.3404 39.1681 45.3353C39.1629 45.3302 39.1577 45.325 39.1525 45.3199C39.1472 45.3147 39.142 45.3096 39.1368 45.3045C39.1316 45.2993 39.1264 45.2942 39.1212 45.289C39.116 45.2839 39.1107 45.2787 39.1055 45.2736C39.1003 45.2684 39.0951 45.2633 39.0898 45.2581C39.0846 45.253 39.0794 45.2478 39.0742 45.2427C39.069 45.2375 39.0637 45.2324 39.0585 45.2272C39.0533 45.2221 39.0481 45.2169 39.0428 45.2118C39.0376 45.2066 39.0324 45.2015 39.0271 45.1963C39.0219 45.1911 39.0167 45.186 39.0114 45.1808C39.0062 45.1757 39.001 45.1705 38.9957 45.1653C38.9905 45.1602 38.9853 45.155 38.98 45.1498C38.9748 45.1447 38.9696 45.1395 38.9643 45.1343C38.9591 45.1292 38.9538 45.124 38.9486 45.1188C38.9434 45.1137 38.9381 45.1085 38.9329 45.1033C38.9276 45.0982 38.9224 45.093 38.9171 45.0878C38.9119 45.0827 38.9067 45.0775 38.9014 45.0723C38.8962 45.0671 38.8909 45.062 38.8857 45.0568C38.8804 45.0516 38.8752 45.0464 38.8699 45.0413C38.8647 45.0361 38.8594 45.0309 38.8542 45.0257C38.8489 45.0206 38.8437 45.0154 38.8384 45.0102C38.8332 45.005 38.8279 44.9998 38.8227 44.9947C38.8174 44.9895 38.8122 44.9843 38.8069 44.9791C38.8016 44.9739 38.7964 44.9687 38.7911 44.9636C38.7859 44.9584 38.7806 44.9532 38.7754 44.948C38.7701 44.9428 38.7648 44.9376 38.7596 44.9324C38.7543 44.9273 38.7491 44.9221 38.7438 44.9169C38.7385 44.9117 38.7333 44.9065 38.728 44.9013C38.7227 44.8961 38.7175 44.8909 38.7122 44.8857C38.707 44.8806 38.7017 44.8754 38.6964 44.8702C38.6912 44.865 38.6859 44.8598 38.6806 44.8546C38.6754 44.8494 38.6701 44.8442 38.6648 44.839C38.6596 44.8338 38.6543 44.8286 38.649 44.8234C38.6438 44.8182 38.6385 44.813 38.6332 44.8078C38.628 44.8026 38.6227 44.7974 38.6174 44.7923C38.6121 44.7871 38.6069 44.7819 38.6016 44.7767C38.5963 44.7715 38.5911 44.7663 38.5858 44.7611C38.5805 44.7559 38.5752 44.7507 38.57 44.7455C38.5647 44.7403 38.5594 44.7351 38.5541 44.7299C38.5489 44.7247 38.5436 44.7195 38.5383 44.7143C38.533 44.7091 38.5278 44.7039 38.5225 44.6986C38.5172 44.6934 38.5119 44.6882 38.5067 44.683C38.5014 44.6778 38.4961 44.6726 38.4908 44.6674C38.4856 44.6622 38.4803 44.657 38.475 44.6518C38.4697 44.6466 38.4644 44.6414 38.4592 44.6362C38.4539 44.631 38.4486 44.6258 38.4433 44.6206C38.438 44.6154 38.4328 44.6102 38.4275 44.605C38.4222 44.5998 38.4169 44.5945 38.4116 44.5893C38.4064 44.5841 38.4011 44.5789 38.3958 44.5737C38.3905 44.5685 38.3852 44.5633 38.38 44.5581C38.3747 44.5529 38.3694 44.5477 38.3641 44.5425C38.3588 44.5373 38.3536 44.5321 38.3483 44.5268C38.343 44.5216 38.3377 44.5164 38.3324 44.5112C38.3271 44.506 38.3219 44.5008 38.3166 44.4956C38.3113 44.4904 38.306 44.4852 38.3007 44.48C38.2955 44.4748 38.2902 44.4695 38.2849 44.4643C38.2796 44.4591 38.2743 44.4539 38.269 44.4487C38.2638 44.4435 38.2585 44.4383 38.2532 44.4331C38.2479 44.4279 38.2426 44.4227 38.2373 44.4175C38.2321 44.4122 38.2268 44.407 38.2215 44.4018L37.5193 45.1138ZM42.9242 49.7415L18.5364 74.4722L19.2484 75.1744L43.6362 50.4437L42.9242 49.7415ZM18.8924 74.8233C18.5364 74.4722 18.5362 74.4724 18.5361 74.4725C18.536 74.4726 18.5359 74.4727 18.5357 74.4729C18.5355 74.4731 18.5352 74.4734 18.5349 74.4737C18.5343 74.4743 18.5336 74.475 18.5328 74.4759C18.5311 74.4776 18.529 74.4798 18.5265 74.4824C18.5214 74.4877 18.5145 74.4949 18.5061 74.5039C18.4893 74.5219 18.4662 74.5471 18.4381 74.5791C18.382 74.6429 18.3054 74.7341 18.2196 74.848C18.0494 75.0738 17.8346 75.3993 17.672 75.7861C17.5099 76.1719 17.3899 76.6418 17.4393 77.1453C17.4897 77.6602 17.7142 78.1746 18.1817 78.6356L18.8838 77.9236C18.5785 77.6225 18.4615 77.3238 18.4345 77.0478C18.4063 76.7603 18.4729 76.4614 18.5939 76.1736C18.7144 75.8869 18.8794 75.634 19.0181 75.4499C19.0867 75.3589 19.147 75.2873 19.189 75.2395C19.21 75.2156 19.2263 75.1979 19.2366 75.1868C19.2418 75.1813 19.2455 75.1774 19.2475 75.1753C19.2485 75.1743 19.2491 75.1737 19.2493 75.1735C19.2493 75.1734 19.2493 75.1735 19.2492 75.1736C19.2491 75.1737 19.249 75.1738 19.2489 75.1739C19.2488 75.174 19.2487 75.1741 19.2487 75.1741C19.2485 75.1742 19.2484 75.1744 18.8924 74.8233ZM62.7393 29.6479L58.9287 33.512L59.6407 34.2142L63.4513 30.35L62.7393 29.6479ZM59.6358 33.5071L51.9074 25.8859L51.2053 26.5979L58.9336 34.2191L59.6358 33.5071ZM58.9287 33.512L55.4992 36.9898L56.2112 37.6919L59.6407 34.2142L58.9287 33.512ZM56.2062 36.9849L48.4779 29.3637L47.7758 30.0757L55.5041 37.6969L56.2062 36.9849ZM55.4992 36.9898L51.8791 40.6608L52.5911 41.3629L56.2112 37.6919L55.4992 36.9898ZM51.8791 40.6608L45.2105 47.423L45.9226 48.1252L52.5911 41.3629L51.8791 40.6608ZM52.5862 40.6558L44.8578 33.0346L44.1557 33.7467L51.884 41.3678L52.5862 40.6558ZM48.7756 44.52L41.0472 36.8988L40.3451 37.6108L48.0734 45.232L48.7756 44.52Z" fill="#424242"/>
<path d="M38.2944 77.4996L38.7944 77.4932C38.7938 77.4505 38.7878 77.408 38.7764 77.3668L38.2944 77.4996ZM25.6121 31.4566L26.0942 31.3238C26.0625 31.2088 25.9907 31.1088 25.8917 31.0421L25.6121 31.4566ZM21.464 28.6588L21.7436 28.2443C21.6226 28.1627 21.4719 28.138 21.3312 28.1767C21.1905 28.2155 21.0737 28.3138 21.0116 28.4459L21.464 28.6588ZM19.3335 33.186L18.8811 32.9731C18.8303 33.0811 18.8198 33.2037 18.8515 33.3188L19.3335 33.186ZM32.0158 79.229L31.5338 79.3618C31.5451 79.403 31.5617 79.4425 31.5831 79.4795L32.0158 79.229ZM27.0846 49.0642L27.2173 49.5463C27.4836 49.4729 27.6399 49.1977 27.5666 48.9314L27.0846 49.0642ZM32.9926 60.1341C33.0659 60.4003 33.3412 60.5567 33.6074 60.4834C33.8736 60.41 34.03 60.1348 33.9566 59.8686L32.9926 60.1341ZM27.733 65.5632C27.8063 65.8294 28.0816 65.9858 28.3478 65.9124C28.6141 65.8391 28.7704 65.5638 28.6971 65.2976L27.733 65.5632ZM30.0249 70.1181C29.9516 69.8519 29.6763 69.6955 29.4101 69.7689C29.1438 69.8422 28.9875 70.1175 29.0608 70.3837L30.0249 70.1181ZM35.2844 64.689C35.2111 64.4228 34.9358 64.2664 34.6696 64.3397C34.4034 64.4131 34.247 64.6883 34.3203 64.9546L35.2844 64.689ZM36.4408 83.032C37.1277 82.8428 37.5977 82.3332 37.9159 81.7691C38.2343 81.2048 38.4319 80.5339 38.5575 79.9129C38.6841 79.2871 38.7429 78.6843 38.7704 78.2404C38.7842 78.0177 38.7902 77.8331 38.7928 77.7033C38.794 77.6384 38.7944 77.587 38.7945 77.5513C38.7946 77.5335 38.7945 77.5196 38.7945 77.5098C38.7945 77.5049 38.7944 77.5011 38.7944 77.4983C38.7944 77.4969 38.7944 77.4958 38.7944 77.4949C38.7944 77.4945 38.7944 77.4942 38.7944 77.4939C38.7944 77.4937 38.7944 77.4936 38.7944 77.4935C38.7944 77.4934 38.7944 77.4932 38.2944 77.4996C37.7944 77.5059 37.7944 77.5058 37.7944 77.5057C37.7944 77.5057 37.7944 77.5057 37.7944 77.5057C37.7944 77.5057 37.7944 77.5057 37.7944 77.5058C37.7944 77.5061 37.7944 77.5066 37.7944 77.5074C37.7945 77.5089 37.7945 77.5115 37.7945 77.5151C37.7945 77.5224 37.7946 77.5337 37.7945 77.5489C37.7945 77.5792 37.7941 77.6248 37.7929 77.6837C37.7906 77.8015 37.7851 77.9719 37.7723 78.1787C37.7466 78.5938 37.692 79.1481 37.5774 79.7146C37.4618 80.2859 37.2906 80.8423 37.0449 81.2778C36.7992 81.7134 36.51 81.9757 36.1753 82.068L36.4408 83.032ZM25.8917 31.0421L21.7436 28.2443L21.1844 29.0733L25.3325 31.8711L25.8917 31.0421ZM21.0116 28.4459L18.8811 32.9731L19.7859 33.3989L21.9164 28.8717L21.0116 28.4459ZM32.0158 79.229C31.5831 79.4795 31.5832 79.4796 31.5833 79.4798C31.5833 79.4798 31.5834 79.48 31.5834 79.4801C31.5836 79.4803 31.5838 79.4806 31.584 79.481C31.5844 79.4817 31.585 79.4827 31.5857 79.4839C31.5871 79.4863 31.589 79.4896 31.5915 79.4938C31.5964 79.5022 31.6035 79.5142 31.6127 79.5295C31.6311 79.5601 31.6577 79.604 31.6921 79.6592C31.7607 79.7694 31.8604 79.9249 31.9863 80.1091C32.2372 80.4763 32.5964 80.964 33.0255 81.4366C33.4514 81.9057 33.9647 82.3808 34.5271 82.7025C35.0893 83.0241 35.7539 83.2212 36.4408 83.032L36.1753 82.068C35.8405 82.1602 35.4578 82.0829 35.0236 81.8345C34.5897 81.5863 34.1577 81.196 33.7659 80.7644C33.3774 80.3365 33.0466 79.8884 32.812 79.545C32.6951 79.3739 32.6031 79.2303 32.5408 79.1303C32.5097 79.0804 32.486 79.0414 32.4704 79.0154C32.4626 79.0024 32.4568 78.9926 32.4532 78.9864C32.4513 78.9833 32.45 78.981 32.4492 78.9797C32.4488 78.979 32.4486 78.9786 32.4485 78.9784C32.4484 78.9782 32.4484 78.9782 32.4484 78.9782C32.4484 78.9782 32.4484 78.9783 32.4484 78.9783C32.4485 78.9783 32.4485 78.9784 32.0158 79.229ZM18.8515 33.3188L23.4632 50.0617L24.4273 49.7961L19.8156 33.0532L18.8515 33.3188ZM24.078 50.411L27.2173 49.5463L26.9518 48.5822L23.8125 49.4469L24.078 50.411ZM27.5666 48.9314L21.946 28.526L20.982 28.7916L26.6025 49.197L27.5666 48.9314ZM33.9566 59.8686L26.0942 31.3238L25.1301 31.5894L32.9926 60.1341L33.9566 59.8686ZM23.4632 50.0617L27.733 65.5632L28.6971 65.2976L24.4273 49.7961L23.4632 50.0617ZM29.0608 70.3837L31.5338 79.3618L32.4979 79.0962L30.0249 70.1181L29.0608 70.3837ZM38.7764 77.3668L35.2844 64.689L34.3203 64.9546L37.8123 77.6324L38.7764 77.3668Z" fill="#424242"/>
<circle cx="26.8158" cy="49.2328" r="1.32538" transform="rotate(-15.3999 26.8158 49.2328)" fill="#C67F7C"/>
<circle cx="12.2278" cy="27.8254" r="8.72591" transform="rotate(-15.3999 12.2278 27.8254)" stroke="#424242"/>
<circle cx="12.2278" cy="27.8253" r="2.79891" transform="rotate(-15.3999 12.2278 27.8253)" stroke="#C67F7C" stroke-width="2"/>
<circle cx="28.9707" cy="23.2136" r="8.72591" transform="rotate(-15.3999 28.9707 23.2136)" stroke="#424242"/>
<circle cx="28.9708" cy="23.2136" r="2.79891" transform="rotate(-15.3999 28.9708 23.2136)" stroke="#C67F7C" stroke-width="2"/>
</g>
<defs>
<clipPath id="clip0_182_123">
<rect width="99" height="91" fill="white" transform="translate(0.5 -6.10352e-05)"/>
</clipPath>
</defs>
</svg>
