<svg width="13" height="12" viewBox="0 0 13 12" fill="none" xmlns="http://www.w3.org/2000/svg">
<path fill-rule="evenodd" clip-rule="evenodd" d="M4.94467 6L0 10.59L1.52227 12L6.5 7.38937L11.4777 12L13 10.59L8.05533 6L13 1.41L11.4777 0L6.5 4.61063L1.52227 0L0 1.41L4.94467 6Z" fill="black"/>
</svg>
