<svg xmlns="http://www.w3.org/2000/svg" version="1.1" xmlns:xlink="http://www.w3.org/1999/xlink" xmlns:svgjs="http://svgjs.com/svgjs" width="512" height="512" x="0" y="0" viewBox="0 0 94.69 94.691" style="enable-background:new 0 0 512 512" xml:space="preserve" class=""><g>
<g>
	<path d="M62.695,10.642l-15.35,48.393L31.996,10.642C13.737,16.918,0,33.943,0,53.461c0,11.756,4.796,22.597,12.555,30.587h22.254
		l2.333-10.117C10.556,63.514,15.583,31.235,25.221,25.966C26.365,26.31,43.129,83.81,43.129,83.81c0.229,0,0.973,0,1.882,0
		c0.192,0,0.915,0,1.816,0c0.326,0,0.678,0,1.035,0c0.612,0,1.247,0,1.815,0c0.91,0,1.653,0,1.883,0c0,0,16.765-57.5,17.908-57.844
		c9.639,5.269,14.664,37.548-11.922,47.965l2.334,10.117h22.254c7.76-7.99,12.556-18.831,12.556-30.587
		C94.69,33.943,80.953,16.918,62.695,10.642z" fill="#000000" data-original="#000000" class=""></path>
</g>
</svg>
