<svg width="22" height="22" viewBox="0 0 22 22" fill="none" xmlns="http://www.w3.org/2000/svg">
<path fill-rule="evenodd" clip-rule="evenodd" d="M22 11C22 17.0751 17.0751 22 11 22C4.92487 22 0 17.0751 0 11C0 4.92487 4.92487 0 11 0C17.0751 0 22 4.92487 22 11ZM11.5543 4.55172C11.3021 4.55172 11.0977 4.74319 11.0977 4.97936C11.0977 5.21554 11.3021 5.407 11.5543 5.407C14.5799 5.407 17.0327 7.70454 17.0327 10.5387C17.0327 10.7749 17.2371 10.9663 17.4893 10.9663C17.7414 10.9663 17.9458 10.7749 17.9458 10.5387C17.9458 7.23218 15.0842 4.55172 11.5543 4.55172ZM5.71017 5.94689C5.96896 5.82229 6.42474 5.75914 6.68598 5.98712C7.01254 6.27209 7.51581 6.77163 7.86157 7.20748C8.20733 7.64332 8.69139 8.30715 8.76055 8.45467C8.8297 8.60218 8.90654 9.1252 8.56077 9.44035C8.28417 9.69247 7.92304 9.91642 7.77705 9.99689C7.64131 10.1086 7.419 10.4368 7.6157 10.8552C7.86157 11.3782 8.39174 12.4041 9.30608 13.1685C10.2204 13.9329 11.1886 14.3352 11.7956 14.4626C11.8341 14.4626 11.8837 14.4713 11.9412 14.4813C12.1469 14.5171 12.4533 14.5704 12.7176 14.3084C12.988 14.0402 13.2349 13.7586 13.3246 13.6513C13.4654 13.5082 13.8747 13.2651 14.3849 13.4367C15.0226 13.6513 15.7526 14.1207 16.083 14.3419C16.3473 14.519 16.9359 14.9387 17.1971 15.1265C17.3559 15.2404 17.6212 15.5797 17.4122 16.025C17.151 16.5815 16.0369 17.8086 15.038 17.8086C14.6692 17.8086 11.104 16.8631 7.95377 14.1944C5.9415 12.4897 4.20932 9.53199 3.91222 8.53513C3.79953 8.29821 3.66635 7.7144 4.03516 7.27453C4.40397 6.83466 4.81889 6.37602 5.71017 5.94689ZM11.0977 8.40049C11.0977 8.16431 11.3021 7.97285 11.5543 7.97285C13.0671 7.97285 14.2935 9.12162 14.2935 10.5387C14.2935 10.7749 14.0891 10.9663 13.837 10.9663C13.5848 10.9663 13.3804 10.7749 13.3804 10.5387C13.3804 9.59397 12.5628 8.82813 11.5543 8.82813C11.3021 8.82813 11.0977 8.63667 11.0977 8.40049ZM11.0977 6.68993C11.0977 6.45375 11.3021 6.26229 11.5543 6.26229C14.0757 6.26229 16.1197 8.1769 16.1197 10.5387C16.1197 10.7749 15.9153 10.9663 15.6631 10.9663C15.411 10.9663 15.2066 10.7749 15.2066 10.5387C15.2066 8.64926 13.5714 7.11757 11.5543 7.11757C11.3021 7.11757 11.0977 6.92611 11.0977 6.68993Z" fill="#C67F7C"/>
</svg>
