<svg width="217" height="691" viewBox="0 0 217 691" fill="none" xmlns="http://www.w3.org/2000/svg">
<path d="M175.769 482.264C167.63 467.773 153.575 457.45 138.542 450.44L145.863 453.691C156.56 458.206 166.572 464.202 175.607 471.503C184.31 479.188 191.127 489.709 191.98 501.328C192.833 512.947 186.721 525.419 175.932 529.764C185.12 515.883 183.908 496.756 175.769 482.264Z" fill="#FEF7F7"/>
<path d="M149.206 540.178C154.858 511.133 147.743 480.903 135.504 454.031L141.652 466.897C150.903 485.377 157.53 505.071 161.341 525.406C164.261 545.878 161.384 568.014 149.199 584.748C137.013 601.481 114.45 611.322 94.9043 604.745C123.235 596.548 143.554 569.224 149.206 540.178Z" fill="#FEF7F7"/>
<path fill-rule="evenodd" clip-rule="evenodd" d="M64.7346 1.95302C88.7012 -1.96912 111.378 6.48295 130.897 20.9029C155.338 38.9966 178.086 60.9744 189.886 88.8896C194.936 102.223 198.685 116.02 201.078 130.087C206.419 155.888 211.541 182.022 209.386 208.094C207.652 224.247 204.243 240.179 199.212 255.63C205.168 265.885 209.701 276.911 212.686 288.403C217.018 305.057 217.821 322.448 215.041 339.451C209.296 371.264 191.661 399.703 165.742 418.95C157.494 437.218 144.419 452.881 127.938 464.236C133.81 488.204 130.632 513.528 119.017 535.332C109.561 552.869 95.1622 567.074 80.9075 581.094C79.7156 583.029 78.4673 584.947 77.2166 586.868C72.6355 593.905 68.0234 600.991 66.0407 609.139C61.1052 629.42 80.1736 655.074 100.637 657.316C102.787 657.302 104.498 657.899 105.443 659.719C92.2357 661.62 78.7748 659.473 66.8257 653.559C60.3273 650.409 54.2388 646.474 48.6953 641.841C45.096 638.858 42.3132 635.678 40.2618 632.364C31.8752 650.999 30.5168 673.883 41.5757 690.923C21.5048 668.787 7.91636 641.512 2.3029 612.094C-3.14179 547.006 8.34122 540.977 36.8864 525.991C51.4227 518.359 70.3836 508.404 93.7869 487.144C117.683 466.243 131.459 419.04 133.804 387.351C134.73 371.628 131.737 355.93 125.095 341.679C118.454 327.427 108.374 315.071 95.7655 305.726C118.453 340.207 127.238 386.123 109.857 423.694C96.9577 451.442 71.4584 471.806 47.441 490.5C65.1207 471.116 79.5885 449.014 90.2909 425.041C100.897 400.805 103.867 373.912 98.8022 347.973C94.4522 328.439 84.6155 310.688 74.905 293.165L74.7084 292.81L41.3888 232.95C31.4024 216.406 23.1474 198.867 16.755 180.612C12.2307 166.037 8.4601 146.92 13.4174 132.06C18.7812 162.269 29.6398 192.164 46.0997 213.52C54.0132 223.787 62.3921 232.23 70.6231 240.524C79.4872 249.456 88.18 258.216 95.9353 268.894C84.1555 252.626 76.221 223.254 76.167 203.064C88.6131 227.494 101.524 239.822 113.92 251.66C121.672 259.063 129.223 266.274 136.334 276.133C153.909 300.524 170.389 326.914 174.975 356.759C176.63 368.108 176.434 379.657 174.395 390.953C184.421 373.889 191.101 355.065 194.075 335.497C198.834 302.805 194.269 265.193 177.573 231.555C180.925 234.928 183.757 237.494 186.214 239.719C189.489 242.685 192.098 245.049 194.384 247.917L196.271 250.836C197.532 220.213 192.395 189.681 181.19 161.201C167.598 126.816 143.812 97.469 113.04 77.121C129.876 95.7459 142.682 117.674 150.653 141.528C158.624 165.382 161.587 190.646 159.357 215.731C155.263 198.608 136.321 190.546 119.976 184.238C85.5756 170.913 55.3464 156.638 39.1691 123.33C34.3559 111.902 39.0699 99.2293 43.7576 86.6279C50.3313 68.9565 56.8531 51.4244 36.9765 37.6558C18.8046 44.152 14.8754 48.8808 9.4925 55.3592L9.36072 55.5178C11.3921 52.2402 13.3408 48.9389 15.2702 45.6703C27.3401 25.2227 38.6547 6.05473 64.7346 1.95302ZM69.1183 557.231C64.5985 560.567 60.6635 563.472 58.2467 566.716C50.0232 577.756 44.6567 601.504 49.4634 614.892C36.7924 603.154 24.5991 586.804 28.4814 562.192C31.2175 544.846 47.6274 534.465 66.2816 524.867C89.5415 512.899 93.4282 505.309 99.4763 493.499L99.48 493.491C99.8244 492.819 100.176 492.133 100.538 491.431C99.8804 493.317 99.8458 496.948 99.8061 501.124C99.7633 505.619 99.7146 510.746 98.8763 515.007C94.2137 538.708 79.9781 549.215 69.1183 557.231ZM69.051 132.518C54.8471 117.616 58.4886 103.466 66.3766 80.8477C67.5694 82.3557 68.3409 85.8885 69.3466 90.4938C71.2422 99.1737 73.9697 111.663 81.9176 121.585C91.3905 133.41 99.7639 142.732 124.501 160.81C121.327 159.703 118.144 158.676 114.964 157.65L114.962 157.649C99.0739 152.523 83.2524 147.418 69.051 132.518ZM136.996 47.4347C118.364 26.9372 84.7462 21.9656 55.3375 33.0788C70.7693 47.4364 79.6762 55.8624 86.4101 68.4498C93.1441 81.0372 97.696 95.9463 96.6308 119.021C104.616 102.045 103.656 85.4567 100.087 70.0675C96.3869 54.1129 83.2309 41.4712 66.2521 35.7212C88.8947 41.2376 104.446 45.5089 119.085 54.8646C135.964 65.6519 151.749 80.7852 166.214 109.788C164.422 83.4953 151.902 63.8326 136.996 47.4347Z" fill="#FEF7F7"/>
<path d="M95.6571 205.183C170.975 235.842 174.414 267.784 178.044 315.897C162.39 270.911 132.208 236.23 95.6571 205.183Z" fill="#FEF7F7"/>
</svg>
