<svg width="211" height="158" viewBox="0 0 211 158" fill="none" xmlns="http://www.w3.org/2000/svg">
<path d="M0 78.8973C6.88666 90.0265 27.0284 110.763 6.7651 135.729C25.6442 115.362 28.3476 108.691 0 78.8973Z" fill="#C67F7C"/>
<path d="M30.5318 46.1864C35.3543 103.548 22.136 128.124 7.37103 138.289C12.4963 138.033 14.6408 137.379 19.0538 134.308C38.9124 120.491 35.1992 75.5515 30.5318 46.1864Z" fill="#C67F7C"/>
<path d="M36.0627 135.117C66.9865 115.583 44.0095 55.4901 65.3696 28.7051C51.7249 38.3641 47.9829 52.3454 45.8951 92.3766C44.138 126.068 23.2655 137.541 7.37103 138.289C13.8901 138.83 22.4263 143.731 36.0627 135.117Z" fill="#C67F7C"/>
<path d="M110.089 122.889C141.012 103.354 118.035 43.2618 139.396 16.4767C125.751 26.1357 122.009 40.1171 119.921 80.1482C118.164 113.84 97.2915 125.313 81.397 126.061C87.916 126.601 96.4522 131.503 110.089 122.889Z" fill="#C67F7C"/>
<path d="M44.9207 147.71C107.746 132.653 52.1756 24.5519 114.181 2.45884C92.0692 7.30989 69.5867 17.7164 67.7181 70.0092C64.6859 154.867 27.577 145.73 7.37109 138.29C15.2106 142.398 27.0141 152.002 44.9207 147.71Z" fill="#C67F7C"/>
<path d="M66.1366 153.338C146.971 107.983 44.2551 -17.0582 211 7.90973C112.347 -14.7102 93.0882 13.1589 89.5814 66.3861C83.1371 164.203 38.2709 155.633 16.3888 149.679C25.6512 153.624 47.1788 163.975 66.1366 153.338Z" fill="#C67F7C"/>
</svg>
